…
```r
sim1_dist <- function(a1, a2) {
  measure_distance(c(a1, a2), sim1)
}

models <- models %>% 
  mutate(dist = purrr::map2_dbl(a1, a2, sim1_dist))
models
```

```
## # A tibble: 250 x 3
##             a1         a2      dist
##          <dbl>      <dbl>     <dbl>
##  1  -3.9183478  0.4755009 17.535907
##  2  23.3473990  2.9837643 24.493837
##  3  17.1939095 -3.6075944 24.458957
##  4  18.2500598  0.7324477  8.048276
##  5   1.9848782  4.6845501 14.549244
##  6   9.9940366 -4.7797522 37.425855
##  7  -0.9389222 -0.5361711 20.876473
##  8  25.1818479 -3.2554874 17.452197
##  9 -18.1156416  4.7407442 11.005958
## 10   9.1016405  4.1960216 17.903687
## # ... with 240 more rows
```
…
