…
```r
as_tibble(iris)
```

```
## # A tibble: 150 x 5
##    Sepal.Length Sepal.Width Petal.Length Petal.Width Species
##           <dbl>       <dbl>        <dbl>       <dbl>  <fctr>
##  1          5.1         3.5          1.4         0.2  setosa
##  2          4.9         3.0          1.4         0.2  setosa
##  3          4.7         3.2          1.3         0.2  setosa
##  4          4.6         3.1          1.5         0.2  setosa
##  5          5.0         3.6          1.4         0.2  setosa
##  6          5.4         3.9          1.7         0.4  setosa
##  7          4.6         3.4          1.4         0.3  setosa
##  8          5.0         3.4          1.5         0.2  setosa
##  9          4.4         2.9          1.4         0.2  setosa
## 10          4.9         3.1          1.5         0.1  setosa
## # ... with 140 more rows
```
…
```r
tibble(
  a = lubridate::now() + runif(1e3) * 86400,
  b = lubridate::today() + runif(1e3) * 30,
  c = 1:1e3,
  d = runif(1e3),
  e = sample(letters, 1e3, replace = TRUE)
)
```

```
## # A tibble: 1,000 x 5
##                      a          b     c          d     e
##                 <dttm>     <date> <int>      <dbl> <chr>
##  1 2017-05-31 00:07:01 2017-06-22     1 0.42289427     b
##  2 2017-05-30 19:15:18 2017-06-03     2 0.52605915     h
##  3 2017-05-31 13:14:58 2017-06-16     3 0.90421192     x
##  4 2017-05-30 19:59:49 2017-06-21     4 0.48607170     z
##  5 2017-05-30 19:34:47 2017-06-12     5 0.80927277     z
##  6 2017-05-30 16:03:17 2017-06-03     6 0.68071669     c
##  7 2017-05-31 10:17:17 2017-05-30     7 0.28861006     d
##  8 2017-05-31 01:15:13 2017-06-08     8 0.22225129     b
##  9 2017-05-31 10:43:55 2017-06-12     9 0.41265855     b
## 10 2017-05-31 15:09:02 2017-06-17    10 0.07157656     y
## # ... with 990 more rows
```
…
```r
print(as_tibble(mtcars))
```

```
## # A tibble: 32 x 11
##      mpg   cyl  disp    hp  drat    wt  qsec    vs    am  gear  carb
##  * <dbl> <dbl> <dbl> <dbl> <dbl> <dbl> <dbl> <dbl> <dbl> <dbl> <dbl>
##  1  21.0     6 160.0   110  3.90 2.620 16.46     0     1     4     4
##  2  21.0     6 160.0   110  3.90 2.875 17.02     0     1     4     4
##  3  22.8     4 108.0    93  3.85 2.320 18.61     1     1     4     1
##  4  21.4     6 258.0   110  3.08 3.215 19.44     1     0     3     1
##  5  18.7     8 360.0   175  3.15 3.440 17.02     0     0     3     2
##  6  18.1     6 225.0   105  2.76 3.460 20.22     1     0     3     1
##  7  14.3     8 360.0   245  3.21 3.570 15.84     0     0     3     4
##  8  24.4     4 146.7    62  3.69 3.190 20.00     1     0     4     2
##  9  22.8     4 140.8    95  3.92 3.150 22.90     1     0     4     2
## 10  19.2     6 167.6   123  3.92 3.440 18.30     1     0     4     4
## # ... with 22 more rows
```
…
