…
### 5.2.4 Exercises

1. Find all flights that
    1. Had an arrival delay of two or more hours
    
    ```r
    filter(flights, arr_delay >= 120)
    ```
    
    ```
    ## # A tibble: 10,200 × 19
    ##     year month   day dep_time sched_dep_time dep_delay arr_time
    ##    <int> <int> <int>    <int>          <int>     <dbl>    <int>
    ## 1   2013     1     1      811            630       101     1047
    ## 2   2013     1     1      848           1835       853     1001
    ## 3   2013     1     1      957            733       144     1056
    ## 4   2013     1     1     1114            900       134     1447
    ## 5   2013     1     1     1505           1310       115     1638
    ## 6   2013     1     1     1525           1340       105     1831
    ## 7   2013     1     1     1549           1445        64     1912
    ## 8   2013     1     1     1558           1359       119     1718
    ## 9   2013     1     1     1732           1630        62     2028
    ## 10  2013     1     1     1803           1620       103     2008
    ## # ... with 10,190 more rows, and 12 more variables: sched_arr_time <int>,
    ## #   arr_delay <dbl>, carrier <chr>, flight <int>, tailnum <chr>,
    ## #   origin <chr>, dest <chr>, air_time <dbl>, distance <dbl>, hour <dbl>,
    ## #   minute <dbl>, time_hour <dttm>
    ```
    2. Flew to Houston (`IAH` or `HOU`)
    
    ```r
    filter(flights, dest == "IAH" | dest == "HOU")
    ```
    
    ```
    ## # A tibble: 9,313 × 19
    ##     year month   day dep_time sched_dep_time dep_delay arr_time
    ##    <int> <int> <int>    <int>          <int>     <dbl>    <int>
    ## 1   2013     1     1      517            515         2      830
    ## 2   2013     1     1      533            529         4      850
    ## 3   2013     1     1      623            627        -4      933
    ## 4   2013     1     1      728            732        -4     1041
    ## 5   2013     1     1      739            739         0     1104
    ## 6   2013     1     1      908            908         0     1228
    ## 7   2013     1     1     1028           1026         2     1350
    ## 8   2013     1     1     1044           1045        -1     1352
    ## 9   2013     1     1     1114            900       134     1447
    ## 10  2013     1     1     1205           1200         5     1503
    ## # ... with 9,303 more rows, and 12 more variables: sched_arr_time <int>,
    ## #   arr_delay <dbl>, carrier <chr>, flight <int>, tailnum <chr>,
    ## #   origin <chr>, dest <chr>, air_time <dbl>, distance <dbl>, hour <dbl>,
    ## #   minute <dbl>, time_hour <dttm>
    ```
    3. Were operated by United, American, or Delta
    
    ```r
    filter(flights, carrier == "UA" | carrier == "DL" | carrier == "AA")
    ```
    
    ```
    ## # A tibble: 139,504 × 19
    ##     year month   day dep_time sched_dep_time dep_delay arr_time
    ##    <int> <int> <int>    <int>          <int>     <dbl>    <int>
    ## 1   2013     1     1      517            515         2      830
    ## 2   2013     1     1      533            529         4      850
    ## 3   2013     1     1      542            540         2      923
    ## 4   2013     1     1      554            600        -6      812
    ## 5   2013     1     1      554            558        -4      740
    ## 6   2013     1     1      558            600        -2      753
    ## 7   2013     1     1      558            600        -2      924
    ## 8   2013     1     1      558            600        -2      923
    ## 9   2013     1     1      559            600        -1      941
    ## 10  2013     1     1      559            600        -1      854
    ## # ... with 139,494 more rows, and 12 more variables: sched_arr_time <int>,
    ## #   arr_delay <dbl>, carrier <chr>, flight <int>, tailnum <chr>,
    ## #   origin <chr>, dest <chr>, air_time <dbl>, distance <dbl>, hour <dbl>,
    ## #   minute <dbl>, time_hour <dttm>
    ```
    4. Departed in summer (July, August, and September)
    
    ```r
    filter(flights, month %in% c(7,8,9))
    ```
    
    ```
    ## # A tibble: 86,326 × 19
    ##     year month   day dep_time sched_dep_time dep_delay arr_time
    ##    <int> <int> <int>    <int>          <int>     <dbl>    <int>
    ## 1   2013     7     1        1           2029       212      236
    ## 2   2013     7     1        2           2359         3      344
    ## 3   2013     7     1       29           2245       104      151
    ## 4   2013     7     1       43           2130       193      322
    ## 5   2013     7     1       44           2150       174      300
    ## 6   2013     7     1       46           2051       235      304
    ## 7   2013     7     1       48           2001       287      308
    ## 8   2013     7     1       58           2155       183      335
    ## 9   2013     7     1      100           2146       194      327
    ## 10  2013     7     1      100           2245       135      337
    ## # ... with 86,316 more rows, and 12 more variables: sched_arr_time <int>,
    ## #   arr_delay <dbl>, carrier <chr>, flight <int>, tailnum <chr>,
    ## #   origin <chr>, dest <chr>, air_time <dbl>, distance <dbl>, hour <dbl>,
    ## #   minute <dbl>, time_hour <dttm>
    ```
    5. Arrived more than two hours late, but didn’t leave late
    
    ```r
    filter(flights, arr_delay > 120 & dep_delay <= 0)
    ```
    
    ```
    ## # A tibble: 29 × 19
    ##     year month   day dep_time sched_dep_time dep_delay arr_time
    ##    <int> <int> <int>    <int>          <int>     <dbl>    <int>
    ## 1   2013     1    27     1419           1420        -1     1754
    ## 2   2013    10     7     1350           1350         0     1736
    ## 3   2013    10     7     1357           1359        -2     1858
    ## 4   2013    10    16      657            700        -3     1258
    ## 5   2013    11     1      658            700        -2     1329
    ## 6   2013     3    18     1844           1847        -3       39
    ## 7   2013     4    17     1635           1640        -5     2049
    ## 8   2013     4    18      558            600        -2     1149
    ## 9   2013     4    18      655            700        -5     1213
    ## 10  2013     5    22     1827           1830        -3     2217
    ## # ... with 19 more rows, and 12 more variables: sched_arr_time <int>,
    ## #   arr_delay <dbl>, carrier <chr>, flight <int>, tailnum <chr>,
    ## #   origin <chr>, dest <chr>, air_time <dbl>, distance <dbl>, hour <dbl>,
    ## #   minute <dbl>, time_hour <dttm>
    ```
    6. Were delayed by at least an hour, but made up over 30 minutes in flight
    
    ```r
    filter(flights, dep_delay >= 60 & (dep_delay - arr_delay) > 30)
    ```
    
    ```
    ## # A tibble: 1,844 × 19
    ##     year month   day dep_time sched_dep_time dep_delay arr_time
    ##    <int> <int> <int>    <int>          <int>     <dbl>    <int>
    ## 1   2013     1     1     2205           1720       285       46
    ## 2   2013     1     1     2326           2130       116      131
    ## 3   2013     1     3     1503           1221       162     1803
    ## 4   2013     1     3     1839           1700        99     2056
    ## 5   2013     1     3     1850           1745        65     2148
    ## 6   2013     1     3     1941           1759       102     2246
    ## 7   2013     1     3     1950           1845        65     2228
    ## 8   2013     1     3     2015           1915        60     2135
    ## 9   2013     1     3     2257           2000       177       45
    ## 10  2013     1     4     1917           1700       137     2135
    ## # ... with 1,834 more rows, and 12 more variables: sched_arr_time <int>,
    ## #   arr_delay <dbl>, carrier <chr>, flight <int>, tailnum <chr>,
    ## #   origin <chr>, dest <chr>, air_time <dbl>, distance <dbl>, hour <dbl>,
    ## #   minute <dbl>, time_hour <dttm>
    ```
    7. Departed between midnight and 6am (inclusive)
    
    ```r
    filter(flights, dep_time %in% 0:600)
    ```
    
    ```
    ## # A tibble: 9,344 × 19
    ##     year month   day dep_time sched_dep_time dep_delay arr_time
    ##    <int> <int> <int>    <int>          <int>     <dbl>    <int>
    ## 1   2013     1     1      517            515         2      830
    ## 2   2013     1     1      533            529         4      850
    ## 3   2013     1     1      542            540         2      923
    ## 4   2013     1     1      544            545        -1     1004
    ## 5   2013     1     1      554            600        -6      812
    ## 6   2013     1     1      554            558        -4      740
    ## 7   2013     1     1      555            600        -5      913
    ## 8   2013     1     1      557            600        -3      709
    ## 9   2013     1     1      557            600        -3      838
    ## 10  2013     1     1      558            600        -2      753
    ## # ... with 9,334 more rows, and 12 more variables: sched_arr_time <int>,
    ## #   arr_delay <dbl>, carrier <chr>, flight <int>, tailnum <chr>,
    ## #   origin <chr>, dest <chr>, air_time <dbl>, distance <dbl>, hour <dbl>,
    ## #   minute <dbl>, time_hour <dttm>
    ```

2. Another useful dplyr filtering helper is `between()`. What does it do? Can you use it to simplify the code needed to answer the previous challenges?

  This is a shortcut for x >= left & x <= right. Can use it for finding flights between certain months and times
  
3. How many flights have a missing `dep_time`? What other variables are missing? What might these rows represent?


```r
filter(flights, is.na(dep_time))
```

```
## # A tibble: 8,255 × 19
##     year month   day dep_time sched_dep_time dep_delay arr_time
##    <int> <int> <int>    <int>          <int>     <dbl>    <int>
## 1   2013     1     1       NA           1630        NA       NA
## 2   2013     1     1       NA           1935        NA       NA
## 3   2013     1     1       NA           1500        NA       NA
## 4   2013     1     1       NA            600        NA       NA
## 5   2013     1     2       NA           1540        NA       NA
## 6   2013     1     2       NA           1620        NA       NA
## 7   2013     1     2       NA           1355        NA       NA
## 8   2013     1     2       NA           1420        NA       NA
## 9   2013     1     2       NA           1321        NA       NA
## 10  2013     1     2       NA           1545        NA       NA
## # ... with 8,245 more rows, and 12 more variables: sched_arr_time <int>,
## #   arr_delay <dbl>, carrier <chr>, flight <int>, tailnum <chr>,
## #   origin <chr>, dest <chr>, air_time <dbl>, distance <dbl>, hour <dbl>,
## #   minute <dbl>, time_hour <dttm>
```
…
4. Why is `NA ^ 0` not missing? Why is `NA | TRUE` not missing? Why is `FALSE & NA` not missing? Can you figure out the general rule? (`NA * 0` is a tricky counterexample!)

They are not missing because they have will have a default value no matter what the NA can be. 1 or -1 , TRUE, FALSE. The last one does not work because we cannot multiple nothing by 0. There is no default value.

### 5.3.1 Exercises

1. How could you use `arrange()` to sort all missing values to the start? (Hint: use `is.na()`).


```r
arrange(flights, desc(is.na(dep_time)))
```

```
## # A tibble: 336,776 × 19
##     year month   day dep_time sched_dep_time dep_delay arr_time
##    <int> <int> <int>    <int>          <int>     <dbl>    <int>
## 1   2013     1     1       NA           1630        NA       NA
## 2   2013     1     1       NA           1935        NA       NA
## 3   2013     1     1       NA           1500        NA       NA
## 4   2013     1     1       NA            600        NA       NA
## 5   2013     1     2       NA           1540        NA       NA
## 6   2013     1     2       NA           1620        NA       NA
## 7   2013     1     2       NA           1355        NA       NA
## 8   2013     1     2       NA           1420        NA       NA
## 9   2013     1     2       NA           1321        NA       NA
## 10  2013     1     2       NA           1545        NA       NA
## # ... with 336,766 more rows, and 12 more variables: sched_arr_time <int>,
## #   arr_delay <dbl>, carrier <chr>, flight <int>, tailnum <chr>,
## #   origin <chr>, dest <chr>, air_time <dbl>, distance <dbl>, hour <dbl>,
## #   minute <dbl>, time_hour <dttm>
```

2. Sort `flights` to find the most delayed flights. Find the flights that left earliest


```r
arrange(flights, desc(dep_delay))
```

```
## # A tibble: 336,776 × 19
##     year month   day dep_time sched_dep_time dep_delay arr_time
##    <int> <int> <int>    <int>          <int>     <dbl>    <int>
## 1   2013     1     9      641            900      1301     1242
## 2   2013     6    15     1432           1935      1137     1607
## 3   2013     1    10     1121           1635      1126     1239
## 4   2013     9    20     1139           1845      1014     1457
## 5   2013     7    22      845           1600      1005     1044
## 6   2013     4    10     1100           1900       960     1342
## 7   2013     3    17     2321            810       911      135
## 8   2013     6    27      959           1900       899     1236
## 9   2013     7    22     2257            759       898      121
## 10  2013    12     5      756           1700       896     1058
## # ... with 336,766 more rows, and 12 more variables: sched_arr_time <int>,
## #   arr_delay <dbl>, carrier <chr>, flight <int>, tailnum <chr>,
## #   origin <chr>, dest <chr>, air_time <dbl>, distance <dbl>, hour <dbl>,
## #   minute <dbl>, time_hour <dttm>
```

```r
arrange(flights, dep_delay)
```

```
## # A tibble: 336,776 × 19
##     year month   day dep_time sched_dep_time dep_delay arr_time
##    <int> <int> <int>    <int>          <int>     <dbl>    <int>
## 1   2013    12     7     2040           2123       -43       40
## 2   2013     2     3     2022           2055       -33     2240
## 3   2013    11    10     1408           1440       -32     1549
## 4   2013     1    11     1900           1930       -30     2233
## 5   2013     1    29     1703           1730       -27     1947
## 6   2013     8     9      729            755       -26     1002
## 7   2013    10    23     1907           1932       -25     2143
## 8   2013     3    30     2030           2055       -25     2213
## 9   2013     3     2     1431           1455       -24     1601
## 10  2013     5     5      934            958       -24     1225
## # ... with 336,766 more rows, and 12 more variables: sched_arr_time <int>,
## #   arr_delay <dbl>, carrier <chr>, flight <int>, tailnum <chr>,
## #   origin <chr>, dest <chr>, air_time <dbl>, distance <dbl>, hour <dbl>,
## #   minute <dbl>, time_hour <dttm>
```

3. Sort `flights` to find the fastest flights.


```r
arrange(flights, air_time)
```

```
## # A tibble: 336,776 × 19
##     year month   day dep_time sched_dep_time dep_delay arr_time
##    <int> <int> <int>    <int>          <int>     <dbl>    <int>
## 1   2013     1    16     1355           1315        40     1442
## 2   2013     4    13      537            527        10      622
## 3   2013    12     6      922            851        31     1021
## 4   2013     2     3     2153           2129        24     2247
## 5   2013     2     5     1303           1315       -12     1342
## 6   2013     2    12     2123           2130        -7     2211
## 7   2013     3     2     1450           1500       -10     1547
## 8   2013     3     8     2026           1935        51     2131
## 9   2013     3    18     1456           1329        87     1533
## 10  2013     3    19     2226           2145        41     2305
## # ... with 336,766 more rows, and 12 more variables: sched_arr_time <int>,
## #   arr_delay <dbl>, carrier <chr>, flight <int>, tailnum <chr>,
## #   origin <chr>, dest <chr>, air_time <dbl>, distance <dbl>, hour <dbl>,
## #   minute <dbl>, time_hour <dttm>
```
…
Allows you to select columns by passing a character vector to the function

4. Does the result of running the following code surprise you? How do the select helpers deal with case by default? How can you change that default?


```r
select(flights, contains("TIME"))
```

```
## # A tibble: 336,776 × 6
##    dep_time sched_dep_time arr_time sched_arr_time air_time
##       <int>          <int>    <int>          <int>    <dbl>
## 1       517            515      830            819      227
## 2       533            529      850            830      227
## 3       542            540      923            850      160
## 4       544            545     1004           1022      183
## 5       554            600      812            837      116
## 6       554            558      740            728      150
## 7       555            600      913            854      158
## 8       557            600      709            723       53
## 9       557            600      838            846      140
## 10      558            600      753            745      138
## # ... with 336,766 more rows, and 1 more variables: time_hour <dttm>
```
…
### 5.5.2 Exercises

1. Currently `dep_time` and `sched_dep_time` are convenient to look at, but hard to compute with because they’re not really continuous numbers. Convert them to a more convenient representation of number of minutes since midnight.


```r
mutate(flights,
       dep_time_mins = dep_time %/% 100 * 60 + dep_time %% 100,
       sched_dep_time_mins = sched_dep_time %/% 100 * 60 + sched_dep_time %% 100) %>%
  select(dep_time, dep_time_mins, sched_dep_time, sched_dep_time_mins)
```

```
## # A tibble: 336,776 × 4
##    dep_time dep_time_mins sched_dep_time sched_dep_time_mins
##       <int>         <dbl>          <int>               <dbl>
## 1       517           317            515                 315
## 2       533           333            529                 329
## 3       542           342            540                 340
## 4       544           344            545                 345
## 5       554           354            600                 360
## 6       554           354            558                 358
## 7       555           355            600                 360
## 8       557           357            600                 360
## 9       557           357            600                 360
## 10      558           358            600                 360
## # ... with 336,766 more rows
```

2. Compare `air_time` with `arr_time - dep_time`. What do you expect to see? What do you see? What do you need to do to fix it?


```r
mutate(flights,
       air_time2 = arr_time - dep_time,
       air_time_diff = air_time2 - air_time) %>%
  filter(air_time_diff != 0) %>%
  select(air_time, air_time2, dep_time, arr_time, dest)
```

```
## # A tibble: 326,128 × 5
##    air_time air_time2 dep_time arr_time  dest
##       <dbl>     <int>    <int>    <int> <chr>
## 1       227       313      517      830   IAH
## 2       227       317      533      850   IAH
## 3       160       381      542      923   MIA
## 4       183       460      544     1004   BQN
## 5       116       258      554      812   ATL
## 6       150       186      554      740   ORD
## 7       158       358      555      913   FLL
## 8        53       152      557      709   IAD
## 9       140       281      557      838   MCO
## 10      138       195      558      753   ORD
## # ... with 326,118 more rows
```
…
