…
By default fills in missing data from top to bottom with the most recent non-missing data. Can be changed to fill in missing data from bottom to top.

## 12.6 Case Study


```r
who
```

```
## # A tibble: 7,240 x 60
##        country  iso2  iso3  year new_sp_m014 new_sp_m1524 new_sp_m2534
##          <chr> <chr> <chr> <int>       <int>        <int>        <int>
##  1 Afghanistan    AF   AFG  1980          NA           NA           NA
##  2 Afghanistan    AF   AFG  1981          NA           NA           NA
##  3 Afghanistan    AF   AFG  1982          NA           NA           NA
##  4 Afghanistan    AF   AFG  1983          NA           NA           NA
##  5 Afghanistan    AF   AFG  1984          NA           NA           NA
##  6 Afghanistan    AF   AFG  1985          NA           NA           NA
##  7 Afghanistan    AF   AFG  1986          NA           NA           NA
##  8 Afghanistan    AF   AFG  1987          NA           NA           NA
##  9 Afghanistan    AF   AFG  1988          NA           NA           NA
## 10 Afghanistan    AF   AFG  1989          NA           NA           NA
## # ... with 7,230 more rows, and 53 more variables: new_sp_m3544 <int>,
## #   new_sp_m4554 <int>, new_sp_m5564 <int>, new_sp_m65 <int>,
## #   new_sp_f014 <int>, new_sp_f1524 <int>, new_sp_f2534 <int>,
## #   new_sp_f3544 <int>, new_sp_f4554 <int>, new_sp_f5564 <int>,
## #   new_sp_f65 <int>, new_sn_m014 <int>, new_sn_m1524 <int>,
## #   new_sn_m2534 <int>, new_sn_m3544 <int>, new_sn_m4554 <int>,
## #   new_sn_m5564 <int>, new_sn_m65 <int>, new_sn_f014 <int>,
## #   new_sn_f1524 <int>, new_sn_f2534 <int>, new_sn_f3544 <int>,
## #   new_sn_f4554 <int>, new_sn_f5564 <int>, new_sn_f65 <int>,
…
```r
who1 <- who %>% 
  gather(new_sp_m014:newrel_f65, key = "key", value = "cases", na.rm = TRUE)
who1
```

```
## # A tibble: 76,046 x 6
##        country  iso2  iso3  year         key cases
##  *       <chr> <chr> <chr> <int>       <chr> <int>
##  1 Afghanistan    AF   AFG  1997 new_sp_m014     0
##  2 Afghanistan    AF   AFG  1998 new_sp_m014    30
##  3 Afghanistan    AF   AFG  1999 new_sp_m014     8
##  4 Afghanistan    AF   AFG  2000 new_sp_m014    52
##  5 Afghanistan    AF   AFG  2001 new_sp_m014   129
##  6 Afghanistan    AF   AFG  2002 new_sp_m014    90
##  7 Afghanistan    AF   AFG  2003 new_sp_m014   127
##  8 Afghanistan    AF   AFG  2004 new_sp_m014   139
##  9 Afghanistan    AF   AFG  2005 new_sp_m014   151
## 10 Afghanistan    AF   AFG  2006 new_sp_m014   193
## # ... with 76,036 more rows
```

```r
who1 %>% 
  count(key)
```

```
## # A tibble: 56 x 2
##             key     n
##           <chr> <int>
##  1  new_ep_f014  1032
##  2 new_ep_f1524  1021
##  3 new_ep_f2534  1021
##  4 new_ep_f3544  1021
##  5 new_ep_f4554  1017
##  6 new_ep_f5564  1017
##  7   new_ep_f65  1014
##  8  new_ep_m014  1038
##  9 new_ep_m1524  1026
## 10 new_ep_m2534  1020
## # ... with 46 more rows
```

```r
who2 <- who1 %>% 
  mutate(key = stringr::str_replace(key, "newrel", "new_rel"))
who2
```

```
## # A tibble: 76,046 x 6
##        country  iso2  iso3  year         key cases
##          <chr> <chr> <chr> <int>       <chr> <int>
##  1 Afghanistan    AF   AFG  1997 new_sp_m014     0
##  2 Afghanistan    AF   AFG  1998 new_sp_m014    30
##  3 Afghanistan    AF   AFG  1999 new_sp_m014     8
##  4 Afghanistan    AF   AFG  2000 new_sp_m014    52
##  5 Afghanistan    AF   AFG  2001 new_sp_m014   129
##  6 Afghanistan    AF   AFG  2002 new_sp_m014    90
##  7 Afghanistan    AF   AFG  2003 new_sp_m014   127
##  8 Afghanistan    AF   AFG  2004 new_sp_m014   139
##  9 Afghanistan    AF   AFG  2005 new_sp_m014   151
## 10 Afghanistan    AF   AFG  2006 new_sp_m014   193
## # ... with 76,036 more rows
```

```r
who3 <- who2 %>% 
  separate(key, c("new", "type", "sexage"), sep = "_")
who3
```

```
## # A tibble: 76,046 x 8
##        country  iso2  iso3  year   new  type sexage cases
##  *       <chr> <chr> <chr> <int> <chr> <chr>  <chr> <int>
##  1 Afghanistan    AF   AFG  1997   new    sp   m014     0
##  2 Afghanistan    AF   AFG  1998   new    sp   m014    30
##  3 Afghanistan    AF   AFG  1999   new    sp   m014     8
##  4 Afghanistan    AF   AFG  2000   new    sp   m014    52
##  5 Afghanistan    AF   AFG  2001   new    sp   m014   129
##  6 Afghanistan    AF   AFG  2002   new    sp   m014    90
##  7 Afghanistan    AF   AFG  2003   new    sp   m014   127
##  8 Afghanistan    AF   AFG  2004   new    sp   m014   139
##  9 Afghanistan    AF   AFG  2005   new    sp   m014   151
## 10 Afghanistan    AF   AFG  2006   new    sp   m014   193
## # ... with 76,036 more rows
```
…
```
## # A tibble: 1 x 2
##     new     n
##   <chr> <int>
## 1   new 76046
```

```r
who4 <- who3 %>% 
  select(-new, -iso2, -iso3)
who4
```

```
## # A tibble: 76,046 x 5
##        country  year  type sexage cases
##  *       <chr> <int> <chr>  <chr> <int>
##  1 Afghanistan  1997    sp   m014     0
##  2 Afghanistan  1998    sp   m014    30
##  3 Afghanistan  1999    sp   m014     8
##  4 Afghanistan  2000    sp   m014    52
##  5 Afghanistan  2001    sp   m014   129
##  6 Afghanistan  2002    sp   m014    90
##  7 Afghanistan  2003    sp   m014   127
##  8 Afghanistan  2004    sp   m014   139
##  9 Afghanistan  2005    sp   m014   151
## 10 Afghanistan  2006    sp   m014   193
## # ... with 76,036 more rows
```

```r
who5 <- who4 %>% 
  separate(sexage, c("sex", "age"), sep = 1)
who5
```

```
## # A tibble: 76,046 x 6
##        country  year  type   sex   age cases
##  *       <chr> <int> <chr> <chr> <chr> <int>
##  1 Afghanistan  1997    sp     m   014     0
##  2 Afghanistan  1998    sp     m   014    30
##  3 Afghanistan  1999    sp     m   014     8
##  4 Afghanistan  2000    sp     m   014    52
##  5 Afghanistan  2001    sp     m   014   129
##  6 Afghanistan  2002    sp     m   014    90
##  7 Afghanistan  2003    sp     m   014   127
##  8 Afghanistan  2004    sp     m   014   139
##  9 Afghanistan  2005    sp     m   014   151
## 10 Afghanistan  2006    sp     m   014   193
## # ... with 76,036 more rows
```

```r
who %>%
  gather(code, value, new_sp_m014:newrel_f65, na.rm = TRUE) %>% 
  mutate(code = stringr::str_replace(code, "newrel", "new_rel")) %>%
  separate(code, c("new", "var", "sexage")) %>% 
  select(-new, -iso2, -iso3) %>% 
  separate(sexage, c("sex", "age"), sep = 1)
```

```
## # A tibble: 76,046 x 6
##        country  year   var   sex   age value
##  *       <chr> <int> <chr> <chr> <chr> <int>
##  1 Afghanistan  1997    sp     m   014     0
##  2 Afghanistan  1998    sp     m   014    30
##  3 Afghanistan  1999    sp     m   014     8
##  4 Afghanistan  2000    sp     m   014    52
##  5 Afghanistan  2001    sp     m   014   129
##  6 Afghanistan  2002    sp     m   014    90
##  7 Afghanistan  2003    sp     m   014   127
##  8 Afghanistan  2004    sp     m   014   139
##  9 Afghanistan  2005    sp     m   014   151
## 10 Afghanistan  2006    sp     m   014   193
## # ... with 76,036 more rows
```
…
```
## Warning: Too few values at 2580 locations: 73467, 73468, 73469, 73470,
## 73471, 73472, 73473, 73474, 73475, 73476, 73477, 73478, 73479, 73480,
## 73481, 73482, 73483, 73484, 73485, 73486, ...
```

```
## # A tibble: 76,046 x 7
##        country  year   new   var   sex   age value
##  *       <chr> <int> <chr> <chr> <chr> <chr> <int>
##  1 Afghanistan  1997   new    sp     m   014     0
##  2 Afghanistan  1998   new    sp     m   014    30
##  3 Afghanistan  1999   new    sp     m   014     8
##  4 Afghanistan  2000   new    sp     m   014    52
##  5 Afghanistan  2001   new    sp     m   014   129
##  6 Afghanistan  2002   new    sp     m   014    90
##  7 Afghanistan  2003   new    sp     m   014   127
##  8 Afghanistan  2004   new    sp     m   014   139
##  9 Afghanistan  2005   new    sp     m   014   151
## 10 Afghanistan  2006   new    sp     m   014   193
## # ... with 76,036 more rows
```
…
```r
airports
```

```
## # A tibble: 1,458 x 8
##      faa                           name      lat        lon   alt    tz
##    <chr>                          <chr>    <dbl>      <dbl> <int> <dbl>
##  1   04G              Lansdowne Airport 41.13047  -80.61958  1044    -5
##  2   06A  Moton Field Municipal Airport 32.46057  -85.68003   264    -6
##  3   06C            Schaumburg Regional 41.98934  -88.10124   801    -6
##  4   06N                Randall Airport 41.43191  -74.39156   523    -5
##  5   09J          Jekyll Island Airport 31.07447  -81.42778    11    -5
##  6   0A9 Elizabethton Municipal Airport 36.37122  -82.17342  1593    -5
##  7   0G6        Williams County Airport 41.46731  -84.50678   730    -5
##  8   0G7  Finger Lakes Regional Airport 42.88356  -76.78123   492    -5
##  9   0P2   Shoestring Aviation Airfield 39.79482  -76.64719  1000    -5
## 10   0S9          Jefferson County Intl 48.05381 -122.81064   108    -8
## # ... with 1,448 more rows, and 2 more variables: dst <chr>, tzone <chr>
```

```r
planes
```

```
## # A tibble: 3,322 x 9
##    tailnum  year                    type     manufacturer     model
##      <chr> <int>                   <chr>            <chr>     <chr>
##  1  N10156  2004 Fixed wing multi engine          EMBRAER EMB-145XR
##  2  N102UW  1998 Fixed wing multi engine AIRBUS INDUSTRIE  A320-214
##  3  N103US  1999 Fixed wing multi engine AIRBUS INDUSTRIE  A320-214
##  4  N104UW  1999 Fixed wing multi engine AIRBUS INDUSTRIE  A320-214
##  5  N10575  2002 Fixed wing multi engine          EMBRAER EMB-145LR
##  6  N105UW  1999 Fixed wing multi engine AIRBUS INDUSTRIE  A320-214
##  7  N107US  1999 Fixed wing multi engine AIRBUS INDUSTRIE  A320-214
##  8  N108UW  1999 Fixed wing multi engine AIRBUS INDUSTRIE  A320-214
##  9  N109UW  1999 Fixed wing multi engine AIRBUS INDUSTRIE  A320-214
## 10  N110UW  1999 Fixed wing multi engine AIRBUS INDUSTRIE  A320-214
## # ... with 3,312 more rows, and 4 more variables: engines <int>,
## #   seats <int>, speed <int>, engine <chr>
```

```r
weather
```

```
## # A tibble: 26,130 x 15
##    origin  year month   day  hour  temp  dewp humid wind_dir wind_speed
##     <chr> <dbl> <dbl> <int> <int> <dbl> <dbl> <dbl>    <dbl>      <dbl>
##  1    EWR  2013     1     1     0 37.04 21.92 53.97      230   10.35702
##  2    EWR  2013     1     1     1 37.04 21.92 53.97      230   13.80936
##  3    EWR  2013     1     1     2 37.94 21.92 52.09      230   12.65858
##  4    EWR  2013     1     1     3 37.94 23.00 54.51      230   13.80936
##  5    EWR  2013     1     1     4 37.94 24.08 57.04      240   14.96014
##  6    EWR  2013     1     1     6 39.02 26.06 59.37      270   10.35702
##  7    EWR  2013     1     1     7 39.02 26.96 61.63      250    8.05546
##  8    EWR  2013     1     1     8 39.02 28.04 64.43      240   11.50780
##  9    EWR  2013     1     1     9 39.92 28.04 62.21      250   12.65858
## 10    EWR  2013     1     1    10 39.02 28.04 64.43      260   12.65858
## # ... with 26,120 more rows, and 5 more variables: wind_gust <dbl>,
## #   precip <dbl>, pressure <dbl>, visib <dbl>, time_hour <dttm>
```

```r
flights
```

```
## # A tibble: 336,776 x 19
##     year month   day dep_time sched_dep_time dep_delay arr_time
##    <int> <int> <int>    <int>          <int>     <dbl>    <int>
##  1  2013     1     1      517            515         2      830
##  2  2013     1     1      533            529         4      850
##  3  2013     1     1      542            540         2      923
##  4  2013     1     1      544            545        -1     1004
##  5  2013     1     1      554            600        -6      812
##  6  2013     1     1      554            558        -4      740
##  7  2013     1     1      555            600        -5      913
##  8  2013     1     1      557            600        -3      709
##  9  2013     1     1      557            600        -3      838
## 10  2013     1     1      558            600        -2      753
## # ... with 336,766 more rows, and 12 more variables: sched_arr_time <int>,
## #   arr_delay <dbl>, carrier <chr>, flight <int>, tailnum <chr>,
## #   origin <chr>, dest <chr>, air_time <dbl>, distance <dbl>, hour <dbl>,
## #   minute <dbl>, time_hour <dttm>
```
…
1. Imagine you wanted to draw (approximately) the route each plane flies from its origin to its destination. What variables would you need? What tables would you need to combine?

From flights need dest and origin.
From airports need lat and long, combine faa with origin and dest from flights

2. I forgot to draw the relationship between `weather` and `airports`. What is the relationship and how should it appear in the diagram?


```r
weather
```

```
## # A tibble: 26,130 x 15
##    origin  year month   day  hour  temp  dewp humid wind_dir wind_speed
##     <chr> <dbl> <dbl> <int> <int> <dbl> <dbl> <dbl>    <dbl>      <dbl>
##  1    EWR  2013     1     1     0 37.04 21.92 53.97      230   10.35702
##  2    EWR  2013     1     1     1 37.04 21.92 53.97      230   13.80936
##  3    EWR  2013     1     1     2 37.94 21.92 52.09      230   12.65858
##  4    EWR  2013     1     1     3 37.94 23.00 54.51      230   13.80936
##  5    EWR  2013     1     1     4 37.94 24.08 57.04      240   14.96014
##  6    EWR  2013     1     1     6 39.02 26.06 59.37      270   10.35702
##  7    EWR  2013     1     1     7 39.02 26.96 61.63      250    8.05546
##  8    EWR  2013     1     1     8 39.02 28.04 64.43      240   11.50780
##  9    EWR  2013     1     1     9 39.92 28.04 62.21      250   12.65858
## 10    EWR  2013     1     1    10 39.02 28.04 64.43      260   12.65858
## # ... with 26,120 more rows, and 5 more variables: wind_gust <dbl>,
## #   precip <dbl>, pressure <dbl>, visib <dbl>, time_hour <dttm>
```

```r
airports
```

```
## # A tibble: 1,458 x 8
##      faa                           name      lat        lon   alt    tz
##    <chr>                          <chr>    <dbl>      <dbl> <int> <dbl>
##  1   04G              Lansdowne Airport 41.13047  -80.61958  1044    -5
##  2   06A  Moton Field Municipal Airport 32.46057  -85.68003   264    -6
##  3   06C            Schaumburg Regional 41.98934  -88.10124   801    -6
##  4   06N                Randall Airport 41.43191  -74.39156   523    -5
##  5   09J          Jekyll Island Airport 31.07447  -81.42778    11    -5
##  6   0A9 Elizabethton Municipal Airport 36.37122  -82.17342  1593    -5
##  7   0G6        Williams County Airport 41.46731  -84.50678   730    -5
##  8   0G7  Finger Lakes Regional Airport 42.88356  -76.78123   492    -5
##  9   0P2   Shoestring Aviation Airfield 39.79482  -76.64719  1000    -5
## 10   0S9          Jefferson County Intl 48.05381 -122.81064   108    -8
## # ... with 1,448 more rows, and 2 more variables: dst <chr>, tzone <chr>
```

Origin from weather is related to origin in flights which is related to faa from airports. Or simpler Origin from weather is related to faa from airports

3. `weather` only contains information for the origin (NYC) airports. If it contained weather records for all airports in the USA, what additional relation would it define with `flights`?


```r
flights
```

```
## # A tibble: 336,776 x 19
##     year month   day dep_time sched_dep_time dep_delay arr_time
##    <int> <int> <int>    <int>          <int>     <dbl>    <int>
##  1  2013     1     1      517            515         2      830
##  2  2013     1     1      533            529         4      850
##  3  2013     1     1      542            540         2      923
##  4  2013     1     1      544            545        -1     1004
##  5  2013     1     1      554            600        -6      812
##  6  2013     1     1      554            558        -4      740
##  7  2013     1     1      555            600        -5      913
##  8  2013     1     1      557            600        -3      709
##  9  2013     1     1      557            600        -3      838
## 10  2013     1     1      558            600        -2      753
## # ... with 336,766 more rows, and 12 more variables: sched_arr_time <int>,
## #   arr_delay <dbl>, carrier <chr>, flight <int>, tailnum <chr>,
## #   origin <chr>, dest <chr>, air_time <dbl>, distance <dbl>, hour <dbl>,
## #   minute <dbl>, time_hour <dttm>
```

```r
weather
```

```
## # A tibble: 26,130 x 15
##    origin  year month   day  hour  temp  dewp humid wind_dir wind_speed
##     <chr> <dbl> <dbl> <int> <int> <dbl> <dbl> <dbl>    <dbl>      <dbl>
##  1    EWR  2013     1     1     0 37.04 21.92 53.97      230   10.35702
##  2    EWR  2013     1     1     1 37.04 21.92 53.97      230   13.80936
##  3    EWR  2013     1     1     2 37.94 21.92 52.09      230   12.65858
##  4    EWR  2013     1     1     3 37.94 23.00 54.51      230   13.80936
##  5    EWR  2013     1     1     4 37.94 24.08 57.04      240   14.96014
##  6    EWR  2013     1     1     6 39.02 26.06 59.37      270   10.35702
##  7    EWR  2013     1     1     7 39.02 26.96 61.63      250    8.05546
##  8    EWR  2013     1     1     8 39.02 28.04 64.43      240   11.50780
##  9    EWR  2013     1     1     9 39.92 28.04 62.21      250   12.65858
## 10    EWR  2013     1     1    10 39.02 28.04 64.43      260   12.65858
## # ... with 26,120 more rows, and 5 more variables: wind_gust <dbl>,
## #   precip <dbl>, pressure <dbl>, visib <dbl>, time_hour <dttm>
```
…
