…
```r
sim1_dist <- function(a1, a2) {
  measure_distance(c(a1, a2), sim1)
}

models <- models %>% 
  mutate(dist = purrr::map2_dbl(a1, a2, sim1_dist))
models
```

```
## # A tibble: 250 x 3
##            a1         a2      dist
##         <dbl>      <dbl>     <dbl>
##  1  21.934870  3.8377457 28.092787
##  2   6.542391 -4.3595470 37.797122
##  3  23.459169 -0.8314494  9.194416
##  4 -11.004094  3.6423820  8.205917
##  5 -10.785221 -4.3069068 53.252430
##  6   5.944959  1.1572532  4.618570
##  7  38.669541  3.3701790 41.926967
##  8  -8.178154 -1.1176188 31.259815
##  9  16.893281 -1.5486357 12.738691
## 10   6.671666  0.2060997  9.586489
## # ... with 240 more rows
```
…
### 23.3.2 Residuals


```r
sim1 <- sim1 %>% 
  add_residuals(sim1_mod)
sim1
```

```
## # A tibble: 30 x 3
##        x         y        resid
##    <int>     <dbl>        <dbl>
##  1     1  4.199913 -2.072442018
##  2     1  7.510634  1.238279125
##  3     1  2.125473 -4.146882207
##  4     2  8.988857  0.664969362
##  5     2 10.243105  1.919217378
##  6     2 11.296823  2.972935148
##  7     3  7.356365 -3.019056466
##  8     3 10.505349  0.129928252
##  9     3 10.511601  0.136179642
## 10     4 12.434589  0.007634878
## # ... with 20 more rows
```
…
```r
mod1 <- lm(y ~ x1 + x2, data = sim3)
mod2 <- lm(y ~ x1 * x2, data = sim3)

grid <- sim3 %>% 
  data_grid(x1, x2) %>% 
  gather_predictions(mod1, mod2)
grid
```

```
## # A tibble: 80 x 4
##    model    x1     x2     pred
##    <chr> <int> <fctr>    <dbl>
##  1  mod1     1      a 1.674928
##  2  mod1     1      b 4.562739
##  3  mod1     1      c 6.480664
##  4  mod1     1      d 4.034515
##  5  mod1     2      a 1.478190
##  6  mod1     2      b 4.366001
##  7  mod1     2      c 6.283926
##  8  mod1     2      d 3.837777
##  9  mod1     3      a 1.281453
## 10  mod1     3      b 4.169263
## # ... with 70 more rows
```
…
```r
mod1 <- lm(y ~ x1 + x2, data = sim4)
mod2 <- lm(y ~ x1 * x2, data = sim4)

grid <- sim4 %>% 
  data_grid(
    x1 = seq_range(x1, 5), 
    x2 = seq_range(x2, 5) 
  ) %>% 
  gather_predictions(mod1, mod2)
grid
```

```
## # A tibble: 50 x 4
##    model    x1    x2       pred
##    <chr> <dbl> <dbl>      <dbl>
##  1  mod1  -1.0  -1.0  0.9963094
##  2  mod1  -1.0  -0.5 -0.3949484
##  3  mod1  -1.0   0.0 -1.7862061
##  4  mod1  -1.0   0.5 -3.1774639
##  5  mod1  -1.0   1.0 -4.5687216
##  6  mod1  -0.5  -1.0  1.9071424
##  7  mod1  -0.5  -0.5  0.5158847
##  8  mod1  -0.5   0.0 -0.8753731
##  9  mod1  -0.5   0.5 -2.2666308
## 10  mod1  -0.5   1.0 -3.6578886
## # ... with 40 more rows
```
…
Nothing really changed. Intercept did not make a difference, at least in my case

2. Use `model_matrix()` to explore the equations generated for the models I fit to `sim3` and `sim4`. Why is `*` a good shorthand for interaction?


```r
model_matrix(y ~ x1 + x2, data = sim3)
```

```
## # A tibble: 240 x 5
##    `(Intercept)`    x1   x2b   x2c   x2d
##            <dbl> <dbl> <dbl> <dbl> <dbl>
##  1             1     1     0     0     0
##  2             1     1     0     0     0
##  3             1     1     0     0     0
##  4             1     1     1     0     0
##  5             1     1     1     0     0
##  6             1     1     1     0     0
##  7             1     1     0     1     0
##  8             1     1     0     1     0
##  9             1     1     0     1     0
## 10             1     1     0     0     1
## # ... with 230 more rows
```

```r
model_matrix(y ~ x1 * x2, data = sim3)
```

```
## # A tibble: 240 x 8
##    `(Intercept)`    x1   x2b   x2c   x2d `x1:x2b` `x1:x2c` `x1:x2d`
##            <dbl> <dbl> <dbl> <dbl> <dbl>    <dbl>    <dbl>    <dbl>
##  1             1     1     0     0     0        0        0        0
##  2             1     1     0     0     0        0        0        0
##  3             1     1     0     0     0        0        0        0
##  4             1     1     1     0     0        1        0        0
##  5             1     1     1     0     0        1        0        0
##  6             1     1     1     0     0        1        0        0
##  7             1     1     0     1     0        0        1        0
##  8             1     1     0     1     0        0        1        0
##  9             1     1     0     1     0        0        1        0
## 10             1     1     0     0     1        0        0        1
## # ... with 230 more rows
```

```r
model_matrix(y ~ x1 + x2, data = sim4)
```

```
## # A tibble: 300 x 3
##    `(Intercept)`    x1         x2
##            <dbl> <dbl>      <dbl>
##  1             1    -1 -1.0000000
##  2             1    -1 -1.0000000
##  3             1    -1 -1.0000000
##  4             1    -1 -0.7777778
##  5             1    -1 -0.7777778
##  6             1    -1 -0.7777778
##  7             1    -1 -0.5555556
##  8             1    -1 -0.5555556
##  9             1    -1 -0.5555556
## 10             1    -1 -0.3333333
## # ... with 290 more rows
```

```r
model_matrix(y ~ x1 * x2, data = sim4)
```

```
## # A tibble: 300 x 4
##    `(Intercept)`    x1         x2   `x1:x2`
##            <dbl> <dbl>      <dbl>     <dbl>
##  1             1    -1 -1.0000000 1.0000000
##  2             1    -1 -1.0000000 1.0000000
##  3             1    -1 -1.0000000 1.0000000
##  4             1    -1 -0.7777778 0.7777778
##  5             1    -1 -0.7777778 0.7777778
##  6             1    -1 -0.7777778 0.7777778
##  7             1    -1 -0.5555556 0.5555556
##  8             1    -1 -0.5555556 0.5555556
##  9             1    -1 -0.5555556 0.5555556
## 10             1    -1 -0.3333333 0.3333333
## # ... with 290 more rows
```
…
```r
# Unsure about mod 2. I feel like it's going to be long.
```

4. For `sim4`, which of `mod1` and `mod2` is better? I think `mod2` does a slightly better job at removing patterns, but it’s pretty subtle. Can you come up with a plot to support my claim?


```r
sim4
```

```
## # A tibble: 300 x 4
##       x1         x2   rep           y
##    <dbl>      <dbl> <int>       <dbl>
##  1    -1 -1.0000000     1  4.24767769
##  2    -1 -1.0000000     2  1.20599701
##  3    -1 -1.0000000     3  0.35347770
##  4    -1 -0.7777778     1 -0.04665814
##  5    -1 -0.7777778     2  4.63868987
##  6    -1 -0.7777778     3  1.37709540
##  7    -1 -0.5555556     1  0.97522088
##  8    -1 -0.5555556     2  2.49963753
##  9    -1 -0.5555556     3  2.70474837
## 10    -1 -0.3333333     1  0.55751522
## # ... with 290 more rows
```

```r
mod1 <- lm(y ~ x1 + x2, data = sim4)
mod2 <- lm(y ~ x1 * x2, data = sim4)
sim4 <- sim4 %>% 
  gather_residuals(mod1, mod2)
sim4
```

```
## # A tibble: 600 x 6
##    model    x1         x2   rep           y      resid
##    <chr> <dbl>      <dbl> <int>       <dbl>      <dbl>
##  1  mod1    -1 -1.0000000     1  4.24767769  3.2513683
##  2  mod1    -1 -1.0000000     2  1.20599701  0.2096876
##  3  mod1    -1 -1.0000000     3  0.35347770 -0.6428317
##  4  mod1    -1 -0.7777778     1 -0.04665814 -0.4246307
##  5  mod1    -1 -0.7777778     2  4.63868987  4.2607173
##  6  mod1    -1 -0.7777778     3  1.37709540  0.9991228
##  7  mod1    -1 -0.5555556     1  0.97522088  1.2155851
##  8  mod1    -1 -0.5555556     2  2.49963753  2.7400017
##  9  mod1    -1 -0.5555556     3  2.70474837  2.9451126
## 10  mod1    -1 -0.3333333     1  0.55751522  1.4162162
## # ... with 590 more rows
```
…
4. Does the final model, `mod_diamonds2`, do a good job of predicting diamond prices? Would you trust it to tell you how much to spend if you were buying a diamond?

## 24.3 What affects the number of daily flights?


```r
daily <- flights %>% 
  mutate(date = make_date(year, month, day)) %>% 
  group_by(date) %>% 
  summarise(n = n())
daily
```

```
## # A tibble: 365 x 2
##          date     n
##        <date> <int>
##  1 2013-01-01   842
##  2 2013-01-02   943
##  3 2013-01-03   914
##  4 2013-01-04   915
##  5 2013-01-05   720
##  6 2013-01-06   832
##  7 2013-01-07   933
##  8 2013-01-08   899
##  9 2013-01-09   902
## 10 2013-01-10   932
## # ... with 355 more rows
```
…
```r
library(gapminder)
```

```
## Warning: package 'gapminder' was built under R version 3.4.2
```

```r
gapminder
```

```
## # A tibble: 1,704 x 6
##        country continent  year lifeExp      pop gdpPercap
##         <fctr>    <fctr> <int>   <dbl>    <int>     <dbl>
##  1 Afghanistan      Asia  1952  28.801  8425333  779.4453
##  2 Afghanistan      Asia  1957  30.332  9240934  820.8530
##  3 Afghanistan      Asia  1962  31.997 10267083  853.1007
##  4 Afghanistan      Asia  1967  34.020 11537966  836.1971
##  5 Afghanistan      Asia  1972  36.088 13079460  739.9811
##  6 Afghanistan      Asia  1977  38.438 14880372  786.1134
##  7 Afghanistan      Asia  1982  39.854 12881816  978.0114
##  8 Afghanistan      Asia  1987  40.822 13867957  852.3959
##  9 Afghanistan      Asia  1992  41.674 16317921  649.3414
## 10 Afghanistan      Asia  1997  41.763 22227415  635.3414
## # ... with 1,694 more rows
```
…
### 25.2.1 Nested data


```r
by_country <- gapminder %>% 
  group_by(country, continent) %>% 
  nest()
by_country
```

```
## # A tibble: 142 x 3
##        country continent              data
##         <fctr>    <fctr>            <list>
##  1 Afghanistan      Asia <tibble [12 x 4]>
##  2     Albania    Europe <tibble [12 x 4]>
##  3     Algeria    Africa <tibble [12 x 4]>
##  4      Angola    Africa <tibble [12 x 4]>
##  5   Argentina  Americas <tibble [12 x 4]>
##  6   Australia   Oceania <tibble [12 x 4]>
##  7     Austria    Europe <tibble [12 x 4]>
##  8     Bahrain      Asia <tibble [12 x 4]>
##  9  Bangladesh      Asia <tibble [12 x 4]>
## 10     Belgium    Europe <tibble [12 x 4]>
## # ... with 132 more rows
```
…
```r
country_model <- function(df) {
  lm(lifeExp ~ year, data = df)
}
models <- map(by_country$data, country_model)

by_country <- by_country %>% 
  mutate(model = map(data, country_model))
by_country
```

```
## # A tibble: 142 x 4
##        country continent              data    model
##         <fctr>    <fctr>            <list>   <list>
##  1 Afghanistan      Asia <tibble [12 x 4]> <S3: lm>
##  2     Albania    Europe <tibble [12 x 4]> <S3: lm>
##  3     Algeria    Africa <tibble [12 x 4]> <S3: lm>
##  4      Angola    Africa <tibble [12 x 4]> <S3: lm>
##  5   Argentina  Americas <tibble [12 x 4]> <S3: lm>
##  6   Australia   Oceania <tibble [12 x 4]> <S3: lm>
##  7     Austria    Europe <tibble [12 x 4]> <S3: lm>
##  8     Bahrain      Asia <tibble [12 x 4]> <S3: lm>
##  9  Bangladesh      Asia <tibble [12 x 4]> <S3: lm>
## 10     Belgium    Europe <tibble [12 x 4]> <S3: lm>
## # ... with 132 more rows
```

```r
by_country %>% 
  filter(continent == "Europe")
```

```
## # A tibble: 30 x 4
##                   country continent              data    model
##                    <fctr>    <fctr>            <list>   <list>
##  1                Albania    Europe <tibble [12 x 4]> <S3: lm>
##  2                Austria    Europe <tibble [12 x 4]> <S3: lm>
##  3                Belgium    Europe <tibble [12 x 4]> <S3: lm>
##  4 Bosnia and Herzegovina    Europe <tibble [12 x 4]> <S3: lm>
##  5               Bulgaria    Europe <tibble [12 x 4]> <S3: lm>
##  6                Croatia    Europe <tibble [12 x 4]> <S3: lm>
##  7         Czech Republic    Europe <tibble [12 x 4]> <S3: lm>
##  8                Denmark    Europe <tibble [12 x 4]> <S3: lm>
##  9                Finland    Europe <tibble [12 x 4]> <S3: lm>
## 10                 France    Europe <tibble [12 x 4]> <S3: lm>
## # ... with 20 more rows
```

```r
by_country %>% 
  arrange(continent, country)
```

```
## # A tibble: 142 x 4
##                     country continent              data    model
##                      <fctr>    <fctr>            <list>   <list>
##  1                  Algeria    Africa <tibble [12 x 4]> <S3: lm>
##  2                   Angola    Africa <tibble [12 x 4]> <S3: lm>
##  3                    Benin    Africa <tibble [12 x 4]> <S3: lm>
##  4                 Botswana    Africa <tibble [12 x 4]> <S3: lm>
##  5             Burkina Faso    Africa <tibble [12 x 4]> <S3: lm>
##  6                  Burundi    Africa <tibble [12 x 4]> <S3: lm>
##  7                 Cameroon    Africa <tibble [12 x 4]> <S3: lm>
##  8 Central African Republic    Africa <tibble [12 x 4]> <S3: lm>
##  9                     Chad    Africa <tibble [12 x 4]> <S3: lm>
## 10                  Comoros    Africa <tibble [12 x 4]> <S3: lm>
## # ... with 132 more rows
```

### 25.2.3 Unnesting


```r
by_country <- by_country %>% 
  mutate(
    resids = map2(data, model, add_residuals)
  )
by_country
```

```
## # A tibble: 142 x 5
##        country continent              data    model            resids
##         <fctr>    <fctr>            <list>   <list>            <list>
##  1 Afghanistan      Asia <tibble [12 x 4]> <S3: lm> <tibble [12 x 5]>
##  2     Albania    Europe <tibble [12 x 4]> <S3: lm> <tibble [12 x 5]>
##  3     Algeria    Africa <tibble [12 x 4]> <S3: lm> <tibble [12 x 5]>
##  4      Angola    Africa <tibble [12 x 4]> <S3: lm> <tibble [12 x 5]>
##  5   Argentina  Americas <tibble [12 x 4]> <S3: lm> <tibble [12 x 5]>
##  6   Australia   Oceania <tibble [12 x 4]> <S3: lm> <tibble [12 x 5]>
##  7     Austria    Europe <tibble [12 x 4]> <S3: lm> <tibble [12 x 5]>
##  8     Bahrain      Asia <tibble [12 x 4]> <S3: lm> <tibble [12 x 5]>
##  9  Bangladesh      Asia <tibble [12 x 4]> <S3: lm> <tibble [12 x 5]>
## 10     Belgium    Europe <tibble [12 x 4]> <S3: lm> <tibble [12 x 5]>
## # ... with 132 more rows
```

```r
resids <- unnest(by_country, resids)
resids
```

```
## # A tibble: 1,704 x 7
##        country continent  year lifeExp      pop gdpPercap       resid
##         <fctr>    <fctr> <int>   <dbl>    <int>     <dbl>       <dbl>
##  1 Afghanistan      Asia  1952  28.801  8425333  779.4453 -1.10629487
##  2 Afghanistan      Asia  1957  30.332  9240934  820.8530 -0.95193823
##  3 Afghanistan      Asia  1962  31.997 10267083  853.1007 -0.66358159
##  4 Afghanistan      Asia  1967  34.020 11537966  836.1971 -0.01722494
##  5 Afghanistan      Asia  1972  36.088 13079460  739.9811  0.67413170
##  6 Afghanistan      Asia  1977  38.438 14880372  786.1134  1.64748834
##  7 Afghanistan      Asia  1982  39.854 12881816  978.0114  1.68684499
##  8 Afghanistan      Asia  1987  40.822 13867957  852.3959  1.27820163
##  9 Afghanistan      Asia  1992  41.674 16317921  649.3414  0.75355828
## 10 Afghanistan      Asia  1997  41.763 22227415  635.3414 -0.53408508
## # ... with 1,694 more rows
```
…
```
##   r.squared adj.r.squared     sigma statistic      p.value df    logLik
## 1 0.9535846     0.9489431 0.8043472  205.4459 5.407324e-08  2 -13.32064
##        AIC    BIC deviance df.residual
## 1 32.64128 34.096 6.469743          10
```

```r
by_country %>% 
  mutate(glance = map(model, broom::glance)) %>% 
  unnest(glance)
```

```
## # A tibble: 142 x 16
##        country continent              data    model            resids
##         <fctr>    <fctr>            <list>   <list>            <list>
##  1 Afghanistan      Asia <tibble [12 x 4]> <S3: lm> <tibble [12 x 5]>
##  2     Albania    Europe <tibble [12 x 4]> <S3: lm> <tibble [12 x 5]>
##  3     Algeria    Africa <tibble [12 x 4]> <S3: lm> <tibble [12 x 5]>
##  4      Angola    Africa <tibble [12 x 4]> <S3: lm> <tibble [12 x 5]>
##  5   Argentina  Americas <tibble [12 x 4]> <S3: lm> <tibble [12 x 5]>
##  6   Australia   Oceania <tibble [12 x 4]> <S3: lm> <tibble [12 x 5]>
##  7     Austria    Europe <tibble [12 x 4]> <S3: lm> <tibble [12 x 5]>
##  8     Bahrain      Asia <tibble [12 x 4]> <S3: lm> <tibble [12 x 5]>
##  9  Bangladesh      Asia <tibble [12 x 4]> <S3: lm> <tibble [12 x 5]>
## 10     Belgium    Europe <tibble [12 x 4]> <S3: lm> <tibble [12 x 5]>
## # ... with 132 more rows, and 11 more variables: r.squared <dbl>,
## #   adj.r.squared <dbl>, sigma <dbl>, statistic <dbl>, p.value <dbl>,
## #   df <int>, logLik <dbl>, AIC <dbl>, BIC <dbl>, deviance <dbl>,
## #   df.residual <int>
```

```r
glance <- by_country %>% 
  mutate(glance = map(model, broom::glance)) %>% 
  unnest(glance, .drop = TRUE)
glance
```

```
## # A tibble: 142 x 13
##        country continent r.squared adj.r.squared     sigma  statistic
##         <fctr>    <fctr>     <dbl>         <dbl>     <dbl>      <dbl>
##  1 Afghanistan      Asia 0.9477123     0.9424835 1.2227880  181.24941
##  2     Albania    Europe 0.9105778     0.9016355 1.9830615  101.82901
##  3     Algeria    Africa 0.9851172     0.9836289 1.3230064  661.91709
##  4      Angola    Africa 0.8878146     0.8765961 1.4070091   79.13818
##  5   Argentina  Americas 0.9955681     0.9951249 0.2923072 2246.36635
##  6   Australia   Oceania 0.9796477     0.9776125 0.6206086  481.34586
##  7     Austria    Europe 0.9921340     0.9913474 0.4074094 1261.29629
##  8     Bahrain      Asia 0.9667398     0.9634138 1.6395865  290.65974
##  9  Bangladesh      Asia 0.9893609     0.9882970 0.9766908  929.92637
## 10     Belgium    Europe 0.9945406     0.9939946 0.2929025 1821.68840
## # ... with 132 more rows, and 7 more variables: p.value <dbl>, df <int>,
## #   logLik <dbl>, AIC <dbl>, BIC <dbl>, deviance <dbl>, df.residual <int>
```

```r
glance %>% 
  arrange(r.squared)
```

```
## # A tibble: 142 x 13
##             country continent  r.squared adj.r.squared    sigma statistic
##              <fctr>    <fctr>      <dbl>         <dbl>    <dbl>     <dbl>
##  1           Rwanda    Africa 0.01715964  -0.081124401 6.558269 0.1745923
##  2         Botswana    Africa 0.03402340  -0.062574259 6.112177 0.3522177
##  3         Zimbabwe    Africa 0.05623196  -0.038144842 7.205431 0.5958240
##  4           Zambia    Africa 0.05983644  -0.034179918 4.528713 0.6364471
##  5        Swaziland    Africa 0.06821087  -0.024968046 6.644091 0.7320419
##  6          Lesotho    Africa 0.08485635  -0.006658011 5.933934 0.9272463
##  7    Cote d'Ivoire    Africa 0.28337240   0.211709644 3.925590 3.9542491
##  8     South Africa    Africa 0.31246865   0.243715518 4.744356 4.5447914
##  9           Uganda    Africa 0.34215382   0.276369202 3.187668 5.2011219
## 10 Congo, Dem. Rep.    Africa 0.34820278   0.283023054 2.429489 5.3421948
## # ... with 132 more rows, and 7 more variables: p.value <dbl>, df <int>,
## #   logLik <dbl>, AIC <dbl>, BIC <dbl>, deviance <dbl>, df.residual <int>
```
…
## 25.4 Creating list-columns

### 25.4.1 With nesting


```r
gapminder %>% 
  group_by(country, continent) %>% 
  nest()
```

```
## # A tibble: 142 x 3
##        country continent              data
##         <fctr>    <fctr>            <list>
##  1 Afghanistan      Asia <tibble [12 x 4]>
##  2     Albania    Europe <tibble [12 x 4]>
##  3     Algeria    Africa <tibble [12 x 4]>
##  4      Angola    Africa <tibble [12 x 4]>
##  5   Argentina  Americas <tibble [12 x 4]>
##  6   Australia   Oceania <tibble [12 x 4]>
##  7     Austria    Europe <tibble [12 x 4]>
##  8     Bahrain      Asia <tibble [12 x 4]>
##  9  Bangladesh      Asia <tibble [12 x 4]>
## 10     Belgium    Europe <tibble [12 x 4]>
## # ... with 132 more rows
```

```r
gapminder %>% 
  nest(year:gdpPercap)
```

```
## # A tibble: 142 x 3
##        country continent              data
##         <fctr>    <fctr>            <list>
##  1 Afghanistan      Asia <tibble [12 x 4]>
##  2     Albania    Europe <tibble [12 x 4]>
##  3     Algeria    Africa <tibble [12 x 4]>
##  4      Angola    Africa <tibble [12 x 4]>
##  5   Argentina  Americas <tibble [12 x 4]>
##  6   Australia   Oceania <tibble [12 x 4]>
##  7     Austria    Europe <tibble [12 x 4]>
##  8     Bahrain      Asia <tibble [12 x 4]>
##  9  Bangladesh      Asia <tibble [12 x 4]>
## 10     Belgium    Europe <tibble [12 x 4]>
## # ... with 132 more rows
```
…
