…
### 23.3.2 Residuals


```r
sim1 <- sim1 %>% 
  add_residuals(sim1_mod)
sim1
```

```
## # A tibble: 30 x 3
##        x         y        resid
##    <int>     <dbl>        <dbl>
##  1     1  4.199913 -2.072442018
##  2     1  7.510634  1.238279125
##  3     1  2.125473 -4.146882207
##  4     2  8.988857  0.664969362
##  5     2 10.243105  1.919217378
##  6     2 11.296823  2.972935148
##  7     3  7.356365 -3.019056466
##  8     3 10.505349  0.129928252
##  9     3 10.511601  0.136179642
## 10     4 12.434589  0.007634878
## # ... with 20 more rows
```
…
```
## Error in model.frame.default(Terms, newdata, na.action = na.action, xlev = object$xlevels): factor x has new level e
```

### 23.4.2 Interactions (continuous and categorical)


```r
sim3
```

```
## # A tibble: 120 x 5
##       x1     x2   rep          y    sd
##    <int> <fctr> <int>      <dbl> <dbl>
##  1     1      a     1 -0.5707363     2
##  2     1      a     2  1.1841503     2
##  3     1      a     3  2.2373204     2
##  4     1      b     1  7.4366963     2
##  5     1      b     2  8.5182934     2
##  6     1      b     3  7.7239098     2
##  7     1      c     1  6.5067480     2
##  8     1      c     2  5.7900643     2
##  9     1      c     3  6.0721817     2
## 10     1      d     1  2.1096727     2
## # ... with 110 more rows
```
…
```r
mod1 <- lm(y ~ x1 + x2, data = sim3)
mod2 <- lm(y ~ x1 * x2, data = sim3)

grid <- sim3 %>% 
  data_grid(x1, x2) %>% 
  gather_predictions(mod1, mod2)
grid
```

```
## # A tibble: 80 x 4
##    model    x1     x2     pred
##    <chr> <int> <fctr>    <dbl>
##  1  mod1     1      a 1.674928
##  2  mod1     1      b 4.562739
##  3  mod1     1      c 6.480664
##  4  mod1     1      d 4.034515
##  5  mod1     2      a 1.478190
##  6  mod1     2      b 4.366001
##  7  mod1     2      c 6.283926
##  8  mod1     2      d 3.837777
##  9  mod1     3      a 1.281453
## 10  mod1     3      b 4.169263
## # ... with 70 more rows
```
…
```r
mod1 <- lm(y ~ x1 + x2, data = sim4)
mod2 <- lm(y ~ x1 * x2, data = sim4)

grid <- sim4 %>% 
  data_grid(
    x1 = seq_range(x1, 5), 
    x2 = seq_range(x2, 5) 
  ) %>% 
  gather_predictions(mod1, mod2)
grid
```

```
## # A tibble: 50 x 4
##    model    x1    x2       pred
##    <chr> <dbl> <dbl>      <dbl>
##  1  mod1  -1.0  -1.0  0.9963094
##  2  mod1  -1.0  -0.5 -0.3949484
##  3  mod1  -1.0   0.0 -1.7862061
##  4  mod1  -1.0   0.5 -3.1774639
##  5  mod1  -1.0   1.0 -4.5687216
##  6  mod1  -0.5  -1.0  1.9071424
##  7  mod1  -0.5  -0.5  0.5158847
##  8  mod1  -0.5   0.0 -0.8753731
##  9  mod1  -0.5   0.5 -2.2666308
## 10  mod1  -0.5   1.0 -3.6578886
## # ... with 40 more rows
```
…
```r
sim5 <- tibble(
  x = seq(0, 3.5 * pi, length = 50),
  y = 4 * sin(x) + rnorm(length(x))
)
sim5
```

```
## # A tibble: 50 x 2
##            x          y
##        <dbl>      <dbl>
##  1 0.0000000 -0.9688361
##  2 0.2243995  0.8512040
##  3 0.4487990  0.8853438
##  4 0.6731984  1.1621536
##  5 0.8975979  2.5221775
##  6 1.1219974  3.4678624
##  7 1.3463969  4.5074174
##  8 1.5707963  3.4066964
##  9 1.7951958  5.0607897
## 10 2.0195953  4.7206168
## # ... with 40 more rows
```
…
```r
mod1 <- lm(y ~ ns(x, 1), data = sim5)
mod2 <- lm(y ~ ns(x, 2), data = sim5)
mod3 <- lm(y ~ ns(x, 3), data = sim5)
mod4 <- lm(y ~ ns(x, 4), data = sim5)
mod5 <- lm(y ~ ns(x, 5), data = sim5)

grid <- sim5 %>% 
  data_grid(x = seq_range(x, n = 50, expand = 0.1)) %>% 
  gather_predictions(mod1, mod2, mod3, mod4, mod5, .pred = "y")
grid
```

```
## # A tibble: 250 x 3
##    model           x        y
##    <chr>       <dbl>    <dbl>
##  1  mod1 -0.54977871 1.929541
##  2  mod1 -0.30293929 1.862413
##  3  mod1 -0.05609987 1.795285
##  4  mod1  0.19073955 1.728157
##  5  mod1  0.43757898 1.661029
##  6  mod1  0.68441840 1.593901
##  7  mod1  0.93125782 1.526773
##  8  mod1  1.17809725 1.459645
##  9  mod1  1.42493667 1.392517
## 10  mod1  1.67177609 1.325389
## # ... with 240 more rows
```
…
Nothing really changed. Intercept did not make a difference, at least in my case

2. Use `model_matrix()` to explore the equations generated for the models I fit to `sim3` and `sim4`. Why is `*` a good shorthand for interaction?


```r
model_matrix(y ~ x1 + x2, data = sim3)
```

```
## # A tibble: 240 x 5
##    `(Intercept)`    x1   x2b   x2c   x2d
##            <dbl> <dbl> <dbl> <dbl> <dbl>
##  1             1     1     0     0     0
##  2             1     1     0     0     0
##  3             1     1     0     0     0
##  4             1     1     1     0     0
##  5             1     1     1     0     0
##  6             1     1     1     0     0
##  7             1     1     0     1     0
##  8             1     1     0     1     0
##  9             1     1     0     1     0
## 10             1     1     0     0     1
## # ... with 230 more rows
```

```r
model_matrix(y ~ x1 * x2, data = sim3)
```

```
## # A tibble: 240 x 8
##    `(Intercept)`    x1   x2b   x2c   x2d `x1:x2b` `x1:x2c` `x1:x2d`
##            <dbl> <dbl> <dbl> <dbl> <dbl>    <dbl>    <dbl>    <dbl>
##  1             1     1     0     0     0        0        0        0
##  2             1     1     0     0     0        0        0        0
##  3             1     1     0     0     0        0        0        0
##  4             1     1     1     0     0        1        0        0
##  5             1     1     1     0     0        1        0        0
##  6             1     1     1     0     0        1        0        0
##  7             1     1     0     1     0        0        1        0
##  8             1     1     0     1     0        0        1        0
##  9             1     1     0     1     0        0        1        0
## 10             1     1     0     0     1        0        0        1
## # ... with 230 more rows
```

```r
model_matrix(y ~ x1 + x2, data = sim4)
```

```
## # A tibble: 300 x 3
##    `(Intercept)`    x1         x2
##            <dbl> <dbl>      <dbl>
##  1             1    -1 -1.0000000
##  2             1    -1 -1.0000000
##  3             1    -1 -1.0000000
##  4             1    -1 -0.7777778
##  5             1    -1 -0.7777778
##  6             1    -1 -0.7777778
##  7             1    -1 -0.5555556
##  8             1    -1 -0.5555556
##  9             1    -1 -0.5555556
## 10             1    -1 -0.3333333
## # ... with 290 more rows
```

```r
model_matrix(y ~ x1 * x2, data = sim4)
```

```
## # A tibble: 300 x 4
##    `(Intercept)`    x1         x2   `x1:x2`
##            <dbl> <dbl>      <dbl>     <dbl>
##  1             1    -1 -1.0000000 1.0000000
##  2             1    -1 -1.0000000 1.0000000
##  3             1    -1 -1.0000000 1.0000000
##  4             1    -1 -0.7777778 0.7777778
##  5             1    -1 -0.7777778 0.7777778
##  6             1    -1 -0.7777778 0.7777778
##  7             1    -1 -0.5555556 0.5555556
##  8             1    -1 -0.5555556 0.5555556
##  9             1    -1 -0.5555556 0.5555556
## 10             1    -1 -0.3333333 0.3333333
## # ... with 290 more rows
```
…
```r
# Unsure about mod 2. I feel like it's going to be long.
```

4. For `sim4`, which of `mod1` and `mod2` is better? I think `mod2` does a slightly better job at removing patterns, but it’s pretty subtle. Can you come up with a plot to support my claim?


```r
sim4
```

```
## # A tibble: 300 x 4
##       x1         x2   rep           y
##    <dbl>      <dbl> <int>       <dbl>
##  1    -1 -1.0000000     1  4.24767769
##  2    -1 -1.0000000     2  1.20599701
##  3    -1 -1.0000000     3  0.35347770
##  4    -1 -0.7777778     1 -0.04665814
##  5    -1 -0.7777778     2  4.63868987
##  6    -1 -0.7777778     3  1.37709540
##  7    -1 -0.5555556     1  0.97522088
##  8    -1 -0.5555556     2  2.49963753
##  9    -1 -0.5555556     3  2.70474837
## 10    -1 -0.3333333     1  0.55751522
## # ... with 290 more rows
```

```r
mod1 <- lm(y ~ x1 + x2, data = sim4)
mod2 <- lm(y ~ x1 * x2, data = sim4)
sim4 <- sim4 %>% 
  gather_residuals(mod1, mod2)
sim4
```

```
## # A tibble: 600 x 6
##    model    x1         x2   rep           y      resid
##    <chr> <dbl>      <dbl> <int>       <dbl>      <dbl>
##  1  mod1    -1 -1.0000000     1  4.24767769  3.2513683
##  2  mod1    -1 -1.0000000     2  1.20599701  0.2096876
##  3  mod1    -1 -1.0000000     3  0.35347770 -0.6428317
##  4  mod1    -1 -0.7777778     1 -0.04665814 -0.4246307
##  5  mod1    -1 -0.7777778     2  4.63868987  4.2607173
##  6  mod1    -1 -0.7777778     3  1.37709540  0.9991228
##  7  mod1    -1 -0.5555556     1  0.97522088  1.2155851
##  8  mod1    -1 -0.5555556     2  2.49963753  2.7400017
##  9  mod1    -1 -0.5555556     3  2.70474837  2.9451126
## 10  mod1    -1 -0.3333333     1  0.55751522  1.4162162
## # ... with 590 more rows
```
…
