…
```r
chunks <- tibble(x = LETTERS)
chunks %>%
  extract(x, c("A's","E's","I's","O's","U's"), "(.+[^AEIOU])(.*[^AEIOU])(.*[^AEIOU])(.*[^AEIOU])(.*Z)")
```

```
## # A tibble: 26 x 5
##    `A's` `E's` `I's` `O's` `U's`
##  * <chr> <chr> <chr> <chr> <chr>
##  1  <NA>  <NA>  <NA>  <NA>  <NA>
##  2  <NA>  <NA>  <NA>  <NA>  <NA>
##  3  <NA>  <NA>  <NA>  <NA>  <NA>
##  4  <NA>  <NA>  <NA>  <NA>  <NA>
##  5  <NA>  <NA>  <NA>  <NA>  <NA>
##  6  <NA>  <NA>  <NA>  <NA>  <NA>
##  7  <NA>  <NA>  <NA>  <NA>  <NA>
##  8  <NA>  <NA>  <NA>  <NA>  <NA>
##  9  <NA>  <NA>  <NA>  <NA>  <NA>
## 10  <NA>  <NA>  <NA>  <NA>  <NA>
## # ... with 16 more rows
```
…
