…
    1. `list(a, b, list(c, d), list(e, f))`
    2. `list(list(list(list(list(list(a))))))`

2. What happens if you subset a tibble as if you’re subsetting a list? What are the key differences between a list and a tibble?


```r
df1 <- as.tibble(mtcars)
list1 <- list(mtcars)

df1[1]
```

```
## # A tibble: 32 x 1
##      mpg
##    <dbl>
##  1  21.0
##  2  21.0
##  3  22.8
##  4  21.4
##  5  18.7
##  6  18.1
##  7  14.3
##  8  24.4
##  9  22.8
## 10  19.2
## # ... with 22 more rows
```
…
