…
```
## [1] "2017-01-31 UTC"
```

### 16.2.2 From individual components


```r
flights %>% 
  select(year, month, day, hour, minute)
```

```
## # A tibble: 336,776 x 5
##     year month   day  hour minute
##    <int> <int> <int> <dbl>  <dbl>
##  1  2013     1     1     5     15
##  2  2013     1     1     5     29
##  3  2013     1     1     5     40
##  4  2013     1     1     5     45
##  5  2013     1     1     6      0
##  6  2013     1     1     5     58
##  7  2013     1     1     6      0
##  8  2013     1     1     6      0
##  9  2013     1     1     6      0
## 10  2013     1     1     6      0
## # ... with 336,766 more rows
```

```r
flights %>% 
  select(year, month, day, hour, minute) %>% 
  mutate(departure = make_datetime(year, month, day, hour, minute))
```

```
## # A tibble: 336,776 x 6
##     year month   day  hour minute           departure
##    <int> <int> <int> <dbl>  <dbl>              <dttm>
##  1  2013     1     1     5     15 2013-01-01 05:15:00
##  2  2013     1     1     5     29 2013-01-01 05:29:00
##  3  2013     1     1     5     40 2013-01-01 05:40:00
##  4  2013     1     1     5     45 2013-01-01 05:45:00
##  5  2013     1     1     6      0 2013-01-01 06:00:00
##  6  2013     1     1     5     58 2013-01-01 05:58:00
##  7  2013     1     1     6      0 2013-01-01 06:00:00
##  8  2013     1     1     6      0 2013-01-01 06:00:00
##  9  2013     1     1     6      0 2013-01-01 06:00:00
## 10  2013     1     1     6      0 2013-01-01 06:00:00
## # ... with 336,766 more rows
```
…
2. Compare dep_time, sched_dep_time and dep_delay. Are they consistent? Explain your findings.


```r
flights_dt %>%
  mutate(dep_time2 = sched_dep_time + dep_delay * 60) %>%
  filter(dep_time2 != dep_time) %>%
  select(dep_time2, dep_time, sched_dep_time, dep_delay)
```

```
## # A tibble: 1,205 x 4
##              dep_time2            dep_time      sched_dep_time dep_delay
##                 <dttm>              <dttm>              <dttm>     <dbl>
##  1 2013-01-02 08:48:00 2013-01-01 08:48:00 2013-01-01 18:35:00       853
##  2 2013-01-03 00:42:00 2013-01-02 00:42:00 2013-01-02 23:59:00        43
##  3 2013-01-03 01:26:00 2013-01-02 01:26:00 2013-01-02 22:50:00       156
##  4 2013-01-04 00:32:00 2013-01-03 00:32:00 2013-01-03 23:59:00        33
##  5 2013-01-04 00:50:00 2013-01-03 00:50:00 2013-01-03 21:45:00       185
##  6 2013-01-04 02:35:00 2013-01-03 02:35:00 2013-01-03 23:59:00       156
##  7 2013-01-05 00:25:00 2013-01-04 00:25:00 2013-01-04 23:59:00        26
##  8 2013-01-05 01:06:00 2013-01-04 01:06:00 2013-01-04 22:45:00       141
##  9 2013-01-06 00:14:00 2013-01-05 00:14:00 2013-01-05 23:59:00        15
## 10 2013-01-06 00:37:00 2013-01-05 00:37:00 2013-01-05 22:30:00       127
## # ... with 1,195 more rows
```

3. Compare air_time with the duration between the departure and arrival. Explain your findings. (Hint: consider the location of the airport.)

```r
flights_dt %>%
  mutate(est_air_time = minutes(arr_time - dep_time),
         act_air_time = minutes(air_time)) %>%
  filter(act_air_time != est_air_time) %>%
  select(origin,dest,act_air_time,est_air_time)
```

```
## # A tibble: 327,150 x 4
##    origin  dest act_air_time est_air_time
##     <chr> <chr> <S4: Period> <S4: Period>
##  1    EWR   IAH      227M 0S      193M 0S
##  2    LGA   IAH      227M 0S      197M 0S
##  3    JFK   MIA      160M 0S      221M 0S
##  4    JFK   BQN      183M 0S      260M 0S
##  5    LGA   ATL      116M 0S      138M 0S
##  6    EWR   ORD      150M 0S      106M 0S
##  7    EWR   FLL      158M 0S      198M 0S
##  8    LGA   IAD       53M 0S       72M 0S
##  9    JFK   MCO      140M 0S      161M 0S
## 10    LGA   ORD      138M 0S      115M 0S
## # ... with 327,140 more rows
```
…
```r
one_pm + days(1)
```

```
## [1] "2016-03-13 13:00:00 EDT"
```

```r
flights_dt %>% 
  filter(arr_time < dep_time) 
```

```
## # A tibble: 10,633 x 9
##    origin  dest dep_delay arr_delay            dep_time
##     <chr> <chr>     <dbl>     <dbl>              <dttm>
##  1    EWR   BQN         9        -4 2013-01-01 19:29:00
##  2    JFK   DFW        59        NA 2013-01-01 19:39:00
##  3    EWR   TPA        -2         9 2013-01-01 20:58:00
##  4    EWR   SJU        -6       -12 2013-01-01 21:02:00
##  5    EWR   SFO        11       -14 2013-01-01 21:08:00
##  6    LGA   FLL       -10        -2 2013-01-01 21:20:00
##  7    EWR   MCO        41        43 2013-01-01 21:21:00
##  8    JFK   LAX        -7       -24 2013-01-01 21:28:00
##  9    EWR   FLL        49        28 2013-01-01 21:34:00
## 10    EWR   FLL        -9       -14 2013-01-01 21:36:00
## # ... with 10,623 more rows, and 4 more variables: sched_dep_time <dttm>,
## #   arr_time <dttm>, sched_arr_time <dttm>, air_time <dbl>
```
…
