…
```
## # A tibble: 0 x 6
## # ... with 6 variables: year <dbl>, month <dbl>, day <int>, hour <int>,
## #   origin <chr>, n <int>
```

```r
flights %>% 
  count(year, month, day, flight) %>% 
  filter(n > 1)
```

```
## # A tibble: 29,768 x 5
##     year month   day flight     n
##    <int> <int> <int>  <int> <int>
##  1  2013     1     1      1     2
##  2  2013     1     1      3     2
##  3  2013     1     1      4     2
##  4  2013     1     1     11     3
##  5  2013     1     1     15     2
##  6  2013     1     1     21     2
##  7  2013     1     1     27     4
##  8  2013     1     1     31     2
##  9  2013     1     1     32     2
## 10  2013     1     1     35     2
## # ... with 29,758 more rows
```

```r
flights %>% 
  count(year, month, day, tailnum) %>% 
  filter(n > 1)
```

```
## # A tibble: 64,928 x 5
##     year month   day tailnum     n
##    <int> <int> <int>   <chr> <int>
##  1  2013     1     1  N0EGMQ     2
##  2  2013     1     1  N11189     2
##  3  2013     1     1  N11536     2
##  4  2013     1     1  N11544     3
##  5  2013     1     1  N11551     2
##  6  2013     1     1  N12540     2
##  7  2013     1     1  N12567     2
##  8  2013     1     1  N13123     2
##  9  2013     1     1  N13538     3
## 10  2013     1     1  N13566     3
## # ... with 64,918 more rows
```

### 13.3.1 Exercises

1. Add a surrogate key to `flights`.


```r
sur_flights <- flights %>%
  mutate(surrogate = row_number()) %>%
  select(surrogate,year:time_hour)
sur_flights
```

```
## # A tibble: 336,776 x 20
##    surrogate  year month   day dep_time sched_dep_time dep_delay arr_time
##        <int> <int> <int> <int>    <int>          <int>     <dbl>    <int>
##  1         1  2013     1     1      517            515         2      830
##  2         2  2013     1     1      533            529         4      850
##  3         3  2013     1     1      542            540         2      923
##  4         4  2013     1     1      544            545        -1     1004
##  5         5  2013     1     1      554            600        -6      812
##  6         6  2013     1     1      554            558        -4      740
##  7         7  2013     1     1      555            600        -5      913
##  8         8  2013     1     1      557            600        -3      709
##  9         9  2013     1     1      557            600        -3      838
## 10        10  2013     1     1      558            600        -2      753
## # ... with 336,766 more rows, and 12 more variables: sched_arr_time <int>,
## #   arr_delay <dbl>, carrier <chr>, flight <int>, tailnum <chr>,
## #   origin <chr>, dest <chr>, air_time <dbl>, distance <dbl>, hour <dbl>,
## #   minute <dbl>, time_hour <dttm>
```
…
```r
ggplot2::diamonds %>%
  count(depth,clarity,carat,color,price,cut,table,x,y,z) %>%
  filter(n > 1)
```

```
## # A tibble: 143 x 11
##    depth clarity carat color price       cut table     x     y     z     n
##    <dbl>   <ord> <dbl> <ord> <int>     <ord> <dbl> <dbl> <dbl> <dbl> <int>
##  1  57.2     VS1  1.50     I  9702      Good    62  7.64  7.61  4.36     2
##  2  57.3      I1  1.52     E  3105      Good    58  7.53  7.42  4.28     2
##  3  57.5     SI2  0.71     E  1783      Good    58  5.91  5.89  3.39     2
##  4  57.5     SI2  1.50     G  6006      Good    63  7.53  7.49  4.32     2
##  5  58.1     SI2  0.51     F  1052   Premium    59  5.26  5.24  3.05     2
##  6  58.4     SI2  0.52     G  1076   Premium    62  5.33  5.28  3.10     2
##  7  58.4     VS2  0.90     I  3334 Very Good    62  6.29  6.35  3.69     2
##  8  58.5     SI2  1.50     F  7644   Premium    60  7.52  7.48  4.39     2
##  9  58.8     SI2  1.00     I  3629     Ideal    55  6.53  6.46  3.82     2
## 10  59.1     SI2  1.10     E  4967   Premium    60  6.77  6.70  3.98     2
## # ... with 133 more rows
```

```r
### Impossible exact duplicates
surg_diamonds <- diamonds %>%
  mutate(surrogate_key = row_number()) %>%
  select(surrogate_key, carat:z)
surg_diamonds
```

```
## # A tibble: 53,940 x 11
##    surrogate_key carat       cut color clarity depth table price     x
##            <int> <dbl>     <ord> <ord>   <ord> <dbl> <dbl> <int> <dbl>
##  1             1  0.23     Ideal     E     SI2  61.5    55   326  3.95
##  2             2  0.21   Premium     E     SI1  59.8    61   326  3.89
##  3             3  0.23      Good     E     VS1  56.9    65   327  4.05
##  4             4  0.29   Premium     I     VS2  62.4    58   334  4.20
##  5             5  0.31      Good     J     SI2  63.3    58   335  4.34
##  6             6  0.24 Very Good     J    VVS2  62.8    57   336  3.94
##  7             7  0.24 Very Good     I    VVS1  62.3    57   336  3.95
##  8             8  0.26 Very Good     H     SI1  61.9    55   337  4.07
##  9             9  0.22      Fair     E     VS2  65.1    61   337  3.87
## 10            10  0.23 Very Good     H     VS1  59.4    61   338  4.00
## # ... with 53,930 more rows, and 2 more variables: y <dbl>, z <dbl>
```
…
How would you characterise the relationship between the Batting, Pitching, and Fielding tables?

I'm gonna skip this one

## 13.4 Mutating joins


```r
flights2 <- flights %>% 
  select(year:day, hour, origin, dest, tailnum, carrier)
flights2
```

```
## # A tibble: 336,776 x 8
##     year month   day  hour origin  dest tailnum carrier
##    <int> <int> <int> <dbl>  <chr> <chr>   <chr>   <chr>
##  1  2013     1     1     5    EWR   IAH  N14228      UA
##  2  2013     1     1     5    LGA   IAH  N24211      UA
##  3  2013     1     1     5    JFK   MIA  N619AA      AA
##  4  2013     1     1     5    JFK   BQN  N804JB      B6
##  5  2013     1     1     6    LGA   ATL  N668DN      DL
##  6  2013     1     1     5    EWR   ORD  N39463      UA
##  7  2013     1     1     6    EWR   FLL  N516JB      B6
##  8  2013     1     1     6    LGA   IAD  N829AS      EV
##  9  2013     1     1     6    JFK   MCO  N593JB      B6
## 10  2013     1     1     6    LGA   ORD  N3ALAA      AA
## # ... with 336,766 more rows
```

```r
flights2 %>%
  select(-origin, -dest) %>% 
  left_join(airlines, by = "carrier")
```

```
## # A tibble: 336,776 x 7
##     year month   day  hour tailnum carrier                     name
##    <int> <int> <int> <dbl>   <chr>   <chr>                    <chr>
##  1  2013     1     1     5  N14228      UA    United Air Lines Inc.
##  2  2013     1     1     5  N24211      UA    United Air Lines Inc.
##  3  2013     1     1     5  N619AA      AA   American Airlines Inc.
##  4  2013     1     1     5  N804JB      B6          JetBlue Airways
##  5  2013     1     1     6  N668DN      DL     Delta Air Lines Inc.
##  6  2013     1     1     5  N39463      UA    United Air Lines Inc.
##  7  2013     1     1     6  N516JB      B6          JetBlue Airways
##  8  2013     1     1     6  N829AS      EV ExpressJet Airlines Inc.
##  9  2013     1     1     6  N593JB      B6          JetBlue Airways
## 10  2013     1     1     6  N3ALAA      AA   American Airlines Inc.
## # ... with 336,766 more rows
```

```r
flights2 %>%
  select(-origin, -dest) %>% 
  mutate(name = airlines$name[match(carrier, airlines$carrier)])
```

```
## # A tibble: 336,776 x 7
##     year month   day  hour tailnum carrier                     name
##    <int> <int> <int> <dbl>   <chr>   <chr>                    <chr>
##  1  2013     1     1     5  N14228      UA    United Air Lines Inc.
##  2  2013     1     1     5  N24211      UA    United Air Lines Inc.
##  3  2013     1     1     5  N619AA      AA   American Airlines Inc.
##  4  2013     1     1     5  N804JB      B6          JetBlue Airways
##  5  2013     1     1     6  N668DN      DL     Delta Air Lines Inc.
##  6  2013     1     1     5  N39463      UA    United Air Lines Inc.
##  7  2013     1     1     6  N516JB      B6          JetBlue Airways
##  8  2013     1     1     6  N829AS      EV ExpressJet Airlines Inc.
##  9  2013     1     1     6  N593JB      B6          JetBlue Airways
## 10  2013     1     1     6  N3ALAA      AA   American Airlines Inc.
## # ... with 336,766 more rows
```
…
### 13.4.5 Defining the key columns


```r
flights2 %>% 
  left_join(weather)
```

```
## Joining, by = c("year", "month", "day", "hour", "origin")
```

```
## # A tibble: 336,776 x 18
##     year month   day  hour origin  dest tailnum carrier  temp  dewp humid
##    <dbl> <dbl> <int> <dbl>  <chr> <chr>   <chr>   <chr> <dbl> <dbl> <dbl>
##  1  2013     1     1     5    EWR   IAH  N14228      UA    NA    NA    NA
##  2  2013     1     1     5    LGA   IAH  N24211      UA    NA    NA    NA
##  3  2013     1     1     5    JFK   MIA  N619AA      AA    NA    NA    NA
##  4  2013     1     1     5    JFK   BQN  N804JB      B6    NA    NA    NA
##  5  2013     1     1     6    LGA   ATL  N668DN      DL 39.92 26.06 57.33
##  6  2013     1     1     5    EWR   ORD  N39463      UA    NA    NA    NA
##  7  2013     1     1     6    EWR   FLL  N516JB      B6 39.02 26.06 59.37
##  8  2013     1     1     6    LGA   IAD  N829AS      EV 39.92 26.06 57.33
##  9  2013     1     1     6    JFK   MCO  N593JB      B6 39.02 26.06 59.37
## 10  2013     1     1     6    LGA   ORD  N3ALAA      AA 39.92 26.06 57.33
## # ... with 336,766 more rows, and 7 more variables: wind_dir <dbl>,
## #   wind_speed <dbl>, wind_gust <dbl>, precip <dbl>, pressure <dbl>,
## #   visib <dbl>, time_hour <dttm>
```

```r
flights2 %>% 
  left_join(planes, by = "tailnum")
```

```
## # A tibble: 336,776 x 16
##    year.x month   day  hour origin  dest tailnum carrier year.y
##     <int> <int> <int> <dbl>  <chr> <chr>   <chr>   <chr>  <int>
##  1   2013     1     1     5    EWR   IAH  N14228      UA   1999
##  2   2013     1     1     5    LGA   IAH  N24211      UA   1998
##  3   2013     1     1     5    JFK   MIA  N619AA      AA   1990
##  4   2013     1     1     5    JFK   BQN  N804JB      B6   2012
##  5   2013     1     1     6    LGA   ATL  N668DN      DL   1991
##  6   2013     1     1     5    EWR   ORD  N39463      UA   2012
##  7   2013     1     1     6    EWR   FLL  N516JB      B6   2000
##  8   2013     1     1     6    LGA   IAD  N829AS      EV   1998
##  9   2013     1     1     6    JFK   MCO  N593JB      B6   2004
## 10   2013     1     1     6    LGA   ORD  N3ALAA      AA     NA
## # ... with 336,766 more rows, and 7 more variables: type <chr>,
## #   manufacturer <chr>, model <chr>, engines <int>, seats <int>,
## #   speed <int>, engine <chr>
```

```r
flights2 %>% 
  left_join(airports, c("dest" = "faa"))
```

```
## # A tibble: 336,776 x 15
##     year month   day  hour origin  dest tailnum carrier
##    <int> <int> <int> <dbl>  <chr> <chr>   <chr>   <chr>
##  1  2013     1     1     5    EWR   IAH  N14228      UA
##  2  2013     1     1     5    LGA   IAH  N24211      UA
##  3  2013     1     1     5    JFK   MIA  N619AA      AA
##  4  2013     1     1     5    JFK   BQN  N804JB      B6
##  5  2013     1     1     6    LGA   ATL  N668DN      DL
##  6  2013     1     1     5    EWR   ORD  N39463      UA
##  7  2013     1     1     6    EWR   FLL  N516JB      B6
##  8  2013     1     1     6    LGA   IAD  N829AS      EV
##  9  2013     1     1     6    JFK   MCO  N593JB      B6
## 10  2013     1     1     6    LGA   ORD  N3ALAA      AA
## # ... with 336,766 more rows, and 7 more variables: name <chr>, lat <dbl>,
## #   lon <dbl>, alt <int>, tz <dbl>, dst <chr>, tzone <chr>
```

```r
flights2 %>% 
  left_join(airports, c("origin" = "faa"))
```

```
## # A tibble: 336,776 x 15
##     year month   day  hour origin  dest tailnum carrier
##    <int> <int> <int> <dbl>  <chr> <chr>   <chr>   <chr>
##  1  2013     1     1     5    EWR   IAH  N14228      UA
##  2  2013     1     1     5    LGA   IAH  N24211      UA
##  3  2013     1     1     5    JFK   MIA  N619AA      AA
##  4  2013     1     1     5    JFK   BQN  N804JB      B6
##  5  2013     1     1     6    LGA   ATL  N668DN      DL
##  6  2013     1     1     5    EWR   ORD  N39463      UA
##  7  2013     1     1     6    EWR   FLL  N516JB      B6
##  8  2013     1     1     6    LGA   IAD  N829AS      EV
##  9  2013     1     1     6    JFK   MCO  N593JB      B6
## 10  2013     1     1     6    LGA   ORD  N3ALAA      AA
## # ... with 336,766 more rows, and 7 more variables: name <chr>, lat <dbl>,
## #   lon <dbl>, alt <int>, tz <dbl>, dst <chr>, tzone <chr>
```
…
2. Add the location of the origin and destination (i.e. the `lat` and `lon`) to flights.


```r
flights4 <- flights2 %>%
  left_join(airports %>% select(faa,lat,lon), by = c(origin = "faa")) %>%
  left_join(airports%>% select(faa,lat,lon), by = c(dest = "faa")) %>%
  rename(origin.lat = lat.x ,  dest.lat = lat.y, origin.lon = lon.x, dest.lon = lon.y)
flights4
```

```
## # A tibble: 336,776 x 12
##     year month   day  hour origin  dest tailnum carrier origin.lat
##    <int> <int> <int> <dbl>  <chr> <chr>   <chr>   <chr>      <dbl>
##  1  2013     1     1     5    EWR   IAH  N14228      UA   40.69250
##  2  2013     1     1     5    LGA   IAH  N24211      UA   40.77725
##  3  2013     1     1     5    JFK   MIA  N619AA      AA   40.63975
##  4  2013     1     1     5    JFK   BQN  N804JB      B6   40.63975
##  5  2013     1     1     6    LGA   ATL  N668DN      DL   40.77725
##  6  2013     1     1     5    EWR   ORD  N39463      UA   40.69250
##  7  2013     1     1     6    EWR   FLL  N516JB      B6   40.69250
##  8  2013     1     1     6    LGA   IAD  N829AS      EV   40.77725
##  9  2013     1     1     6    JFK   MCO  N593JB      B6   40.63975
## 10  2013     1     1     6    LGA   ORD  N3ALAA      AA   40.77725
## # ... with 336,766 more rows, and 3 more variables: origin.lon <dbl>,
## #   dest.lat <dbl>, dest.lon <dbl>
```
…
```r
flights %>%
  group_by(origin,year,month,day) %>%
  mutate(avg_delay = mean(arr_delay, na.rm = T)) %>%
  select(origin,avg_delay,year,month,day) %>%
  inner_join(weather) %>%
  arrange(-avg_delay)
```

```
## Joining, by = c("origin", "year", "month", "day")
```

```
## # A tibble: 8,040,775 x 16
## # Groups:   origin, year, month, day [1,092]
##    origin avg_delay  year month   day  hour  temp  dewp humid wind_dir
##     <chr>     <dbl> <dbl> <dbl> <int> <int> <dbl> <dbl> <dbl>    <dbl>
##  1    EWR  104.9812  2013     3     8     0 35.60 33.80 93.08      350
##  2    EWR  104.9812  2013     3     8     1 35.06 32.00 88.47      340
##  3    EWR  104.9812  2013     3     8     2 35.06 32.00 88.47      350
##  4    EWR  104.9812  2013     3     8     3 33.80 32.00 93.03      340
##  5    EWR  104.9812  2013     3     8     4 33.98 32.00 92.36      330
##  6    EWR  104.9812  2013     3     8     5 33.80 32.00 93.03      330
##  7    EWR  104.9812  2013     3     8     6 33.08 32.00 95.75      330
##  8    EWR  104.9812  2013     3     8     7 33.08 30.92 91.66      330
##  9    EWR  104.9812  2013     3     8     8 33.08 30.92 91.66      340
## 10    EWR  104.9812  2013     3     8     9 33.80 30.20 86.49      340
## # ... with 8,040,765 more rows, and 6 more variables: wind_speed <dbl>,
## #   wind_gust <dbl>, precip <dbl>, pressure <dbl>, visib <dbl>,
## #   time_hour <dttm>
```
…
```r
flights %>% 
  filter(dest %in% top_dest$dest)
```

```
## # A tibble: 141,145 x 19
##     year month   day dep_time sched_dep_time dep_delay arr_time
##    <int> <int> <int>    <int>          <int>     <dbl>    <int>
##  1  2013     1     1      542            540         2      923
##  2  2013     1     1      554            600        -6      812
##  3  2013     1     1      554            558        -4      740
##  4  2013     1     1      555            600        -5      913
##  5  2013     1     1      557            600        -3      838
##  6  2013     1     1      558            600        -2      753
##  7  2013     1     1      558            600        -2      924
##  8  2013     1     1      558            600        -2      923
##  9  2013     1     1      559            559         0      702
## 10  2013     1     1      600            600         0      851
## # ... with 141,135 more rows, and 12 more variables: sched_arr_time <int>,
## #   arr_delay <dbl>, carrier <chr>, flight <int>, tailnum <chr>,
## #   origin <chr>, dest <chr>, air_time <dbl>, distance <dbl>, hour <dbl>,
## #   minute <dbl>, time_hour <dttm>
```

```r
flights %>% 
  semi_join(top_dest)
```

```
## Joining, by = "dest"
```

```
## # A tibble: 141,145 x 19
##     year month   day dep_time sched_dep_time dep_delay arr_time
##    <int> <int> <int>    <int>          <int>     <dbl>    <int>
##  1  2013     1     1      554            558        -4      740
##  2  2013     1     1      558            600        -2      753
##  3  2013     1     1      608            600         8      807
##  4  2013     1     1      629            630        -1      824
##  5  2013     1     1      656            700        -4      854
##  6  2013     1     1      709            700         9      852
##  7  2013     1     1      715            713         2      911
##  8  2013     1     1      739            745        -6      918
##  9  2013     1     1      749            710        39      939
## 10  2013     1     1      828            830        -2     1027
## # ... with 141,135 more rows, and 12 more variables: sched_arr_time <int>,
## #   arr_delay <dbl>, carrier <chr>, flight <int>, tailnum <chr>,
## #   origin <chr>, dest <chr>, air_time <dbl>, distance <dbl>, hour <dbl>,
## #   minute <dbl>, time_hour <dttm>
```

```r
flights %>%
  anti_join(planes, by = "tailnum") %>%
  count(tailnum, sort = TRUE)
```

```
## # A tibble: 722 x 2
##    tailnum     n
##      <chr> <int>
##  1    <NA>  2512
##  2  N725MQ   575
##  3  N722MQ   513
##  4  N723MQ   507
##  5  N713MQ   483
##  6  N735MQ   396
##  7  N0EGMQ   371
##  8  N534MQ   364
##  9  N542MQ   363
## 10  N531MQ   349
## # ... with 712 more rows
```

### 13.5.1 Exercises

1. What does it mean for a flight to have a missing `tailnum`? What do the tail numbers that don’t have a matching record in `planes` have in common? (Hint: one variable explains ~90% of the problems.)


```r
flights %>%
  anti_join(planes, by = "tailnum")
```

```
## # A tibble: 52,606 x 19
##     year month   day dep_time sched_dep_time dep_delay arr_time
##    <int> <int> <int>    <int>          <int>     <dbl>    <int>
##  1  2013     1    30      555            600        -5      733
##  2  2013    10     1     1209           1215        -6     1419
##  3  2013    10     2      606            610        -4      833
##  4  2013    10     2     1457           1459        -2     1826
##  5  2013    10     3      728            735        -7     1042
##  6  2013    10     3     1459           1505        -6     1813
##  7  2013    10     5     1846           1850        -4     2205
##  8  2013    10     7     1847           1850        -3     2147
##  9  2013    10    18     1121           1125        -4     1252
## 10  2013    10    24     1618           1615         3     1909
## # ... with 52,596 more rows, and 12 more variables: sched_arr_time <int>,
## #   arr_delay <dbl>, carrier <chr>, flight <int>, tailnum <chr>,
## #   origin <chr>, dest <chr>, air_time <dbl>, distance <dbl>, hour <dbl>,
## #   minute <dbl>, time_hour <dttm>
```
…
```r
flights %>%
  filter(carrier == "AA") %>%
  count(tailnum)
```

```
## # A tibble: 601 x 2
##    tailnum     n
##      <chr> <int>
##  1  N200AA    34
##  2  N201AA    54
##  3  N202AA    36
##  4  N319AA   354
##  5  N320AA   307
##  6  N322AA    15
##  7  N323AA   357
##  8  N324AA   328
##  9  N325AA     7
## 10  N327AA   387
## # ... with 591 more rows
```

```r
flights %>%
  filter(carrier == "MQ") %>%
  count(tailnum)
```

```
## # A tibble: 238 x 2
##    tailnum     n
##      <chr> <int>
##  1  N0EGMQ   371
##  2  N1EAMQ   210
##  3  N3AEMQ   276
##  4  N500MQ   237
##  5  N501MQ   250
##  6  N502MQ   282
##  7  N503MQ   191
##  8  N504MQ   271
##  9  N505MQ   242
## 10  N506MQ   284
## # ... with 228 more rows
```
…
